<?xml version="1.0" encoding="utf-8"?>
<!-- Generator: Adobe Illustrator 24.1.3, SVG Export Plug-In . SVG Version: 6.00 Build 0)  -->
<svg version="1.1" id="Layer_1" xmlns="http://www.w3.org/2000/svg" xmlns:xlink="http://www.w3.org/1999/xlink" x="0px" y="0px"
	 viewBox="0 0 353.67 242.69" style="enable-background:new 0 0 353.67 242.69;" xml:space="preserve">
<style type="text/css">
	.st0{fill:#FFDA95;}
	.st1{fill:#F6A347;}
	.st2{fill:#FFFFFF;}
	.st3{fill:none;stroke:#5F342A;stroke-width:4.3643;stroke-linecap:round;stroke-linejoin:round;stroke-miterlimit:10;}
	.st4{opacity:0.11;fill:#1D314F;}
	.st5{fill:#5F342A;}
	.st6{fill:none;stroke:#5F342A;stroke-width:2.9949;stroke-linecap:round;stroke-linejoin:round;stroke-miterlimit:10;}
	.st7{fill:#FCE4E6;}
	.st8{fill:#ED6F7D;}
	.st9{fill:none;stroke:#5F342A;stroke-width:2;stroke-linecap:round;stroke-linejoin:round;stroke-miterlimit:10;}
	.st10{fill:none;stroke:#5F342A;stroke-width:6;stroke-linecap:round;stroke-linejoin:round;stroke-miterlimit:10;}
	.st11{fill:none;stroke:#5F342A;stroke-width:4;stroke-linecap:round;stroke-linejoin:round;stroke-miterlimit:10;}
	.st12{fill:#F59C9E;}
	.st13{filter:url(#Adobe_OpacityMaskFilter);}
	.st14{filter:url(#Adobe_OpacityMaskFilter_1_);}
	.st15{mask:url(#SVGID_1_);fill:url(#SVGID_2_);}
	.st16{opacity:0.38;fill:url(#SVGID_3_);}
	.st17{fill:#C6E8EF;}
	.st18{fill:none;stroke:#F1BE2D;stroke-width:4;stroke-miterlimit:10;}
	.st19{fill:#FBF5AF;}
	.st20{fill:#FFFDF3;}
	.st21{fill:none;stroke:#5F342A;stroke-width:5;stroke-linecap:round;stroke-linejoin:round;stroke-miterlimit:10;}
	.st22{fill:#F8B9BD;}
	.st23{fill:#EF505C;}
	.st24{fill:#8E5228;}
	.st25{fill:#D99038;}
	.st26{fill:#FFC964;}
	.st27{fill:#06C4CE;}
	.st28{fill:#5F342A;stroke:#5F342A;stroke-miterlimit:10;}
	.st29{fill:#07ACE8;}
	.st30{fill:none;stroke:#404040;stroke-width:6.2794;stroke-miterlimit:10;}
	.st31{fill:#FFA300;}
	.st32{fill:none;stroke:#404040;stroke-width:5.3823;stroke-linecap:round;stroke-linejoin:round;stroke-miterlimit:10;}
	.st33{fill:#ADADAD;}
	.st34{fill:#FFF8F2;}
	.st35{fill:#404040;}
	.st36{fill:#404040;stroke:#404040;stroke-miterlimit:10;}
	.st37{fill:#FFFAD1;stroke:#06C4CE;stroke-miterlimit:10;}
	.st38{fill:#B06C45;}
	.st39{fill:#F9A62D;}
	.st40{fill:#FFFAD1;}
	.st41{fill:#078E8E;}
</style>
<g>
	<path class="st38" d="M340.5,118.86c0,0.01,0,0.02,0,0.03L340.5,118.86L340.5,118.86z"/>
	<path class="st39" d="M328.05,106.37H204.19c-0.09,0-0.18,0.01-0.28,0.01c-0.09,0-0.18-0.01-0.28-0.01H28.29
		c-6.88,0-12.45,5.57-12.45,12.45v12.45h187.8c0.09,0,0.18-0.01,0.28-0.01c0.09,0,0.18,0.01,0.28,0.01H340.5v-12.45
		C340.5,111.95,334.92,106.37,328.05,106.37z"/>
	<path class="st40" d="M28.92,126.14v5.13h298.49v-5.13c0-3.45-2.79-6.24-6.24-6.24H35.16C31.72,119.9,28.92,122.7,28.92,126.14z"/>
	<g>
		<g>
			
				<rect x="205.72" y="69.38" transform="matrix(-0.3564 0.9343 -0.9343 -0.3564 485.8875 -112.1533)" class="st27" width="151.71" height="83.77"/>
			<path class="st41" d="M238.84,167.34l37.26,14.21c2.7-7.07,10.62-10.62,17.69-7.92L332.22,72.9c-7.07-2.7-10.62-10.62-7.92-17.69
				l-37.26-14.21c-2.7,7.07-10.62,10.62-17.69,7.92l-38.42,100.73C237.99,152.34,241.54,160.26,238.84,167.34z"/>
			<path class="st27" d="M273.26,133.07c-12.04-4.59-18.07-18.07-13.48-30.11c4.59-12.04,18.07-18.07,30.11-13.48
				c12.04,4.59,18.07,18.07,13.48,30.11C298.78,131.62,285.29,137.66,273.26,133.07z"/>
		</g>
		<path class="st40" d="M280.59,102.5c-0.87,0.77-1.59,1.52-2.15,2.24c-0.56,0.72-0.97,1.37-1.24,1.96
			c-0.23,0.51-0.3,1.01-0.21,1.49c0.09,0.48,0.35,0.82,0.8,1.02c0.11,0.05,0.23,0.09,0.35,0.11c0.13,0.03,0.25,0.04,0.37,0.03
			c0.12-0.01,0.28-0.03,0.48-0.07c0.2-0.04,0.36-0.08,0.47-0.13c0.11-0.04,0.56-0.22,1.35-0.54c2.24-0.9,3.8-1.46,4.66-1.7
			c0.68-0.18,1.37-0.25,2.08-0.2c0.71,0.05,1.35,0.21,1.94,0.47c0.45,0.2,0.87,0.47,1.25,0.8c0.38,0.33,0.71,0.71,0.99,1.15
			c0.28,0.43,0.5,0.9,0.65,1.41c0.15,0.5,0.24,1.01,0.24,1.54c0.01,0.52-0.07,1.26-0.23,2.2c0.31,0.16,0.49,0.26,0.55,0.28
			l0.97,0.42l1.69,0.76c-0.5,1.07-0.92,1.96-1.23,2.67c-0.36,0.79-0.75,1.68-1.17,2.68c-1.08-0.54-1.71-0.86-1.9-0.94l-1.28-0.57
			c-0.58,0.92-1.21,1.79-1.91,2.62c-1.63-0.65-3.33-1.3-5.1-1.95c0.73-0.64,1.32-1.26,1.78-1.86c0.46-0.61,0.79-1.13,0.99-1.58
			c0.23-0.5,0.3-0.97,0.21-1.41c-0.08-0.44-0.31-0.74-0.67-0.9c-0.32-0.14-0.66-0.18-1.02-0.11c-0.36,0.07-0.79,0.21-1.29,0.41
			c-1.78,0.74-3.17,1.26-4.17,1.54c-0.99,0.28-1.87,0.4-2.63,0.36c-0.76-0.04-1.45-0.21-2.09-0.49c-0.52-0.24-0.99-0.52-1.39-0.86
			c-0.4-0.34-0.73-0.72-1.01-1.16c-0.27-0.43-0.48-0.88-0.64-1.36c-0.16-0.47-0.26-0.94-0.32-1.39c-0.06-0.45-0.08-1.09-0.05-1.91
			l-1.87-0.88c-0.62-0.28-1.23-0.55-1.82-0.8c0.5-1.07,0.9-1.92,1.18-2.55c0.28-0.63,0.69-1.57,1.23-2.82
			c0.67,0.36,1.53,0.78,2.59,1.25l0.61,0.27c0.47-0.75,0.88-1.37,1.24-1.86c0.36-0.49,0.84-1.06,1.45-1.73
			C277.88,101.48,279.62,102.17,280.59,102.5z"/>
	</g>
	<g>
		<g>
			
				<rect x="40.72" y="50.38" transform="matrix(0.2231 0.9748 -0.9748 0.2231 180.5042 -41.9503)" class="st27" width="151.71" height="83.77"/>
			<path class="st41" d="M112.22,162.63l38.88-8.9c-1.69-7.38,2.92-14.73,10.3-16.42L137.34,32.21c-7.38,1.69-14.73-2.92-16.42-10.3
				l-38.88,8.9c1.69,7.38-2.92,14.73-10.3,16.42L95.8,152.33C103.18,150.64,110.53,155.25,112.22,162.63z"/>
			<path class="st27" d="M121.78,115.01c-12.56,2.87-25.07-4.98-27.95-17.54s4.98-25.07,17.54-27.95
				c12.56-2.87,25.07,4.98,27.95,17.54C142.19,99.62,134.34,112.14,121.78,115.01z"/>
		</g>
		<path class="st40" d="M110.88,85.52c-0.29,1.13-0.47,2.15-0.54,3.06c-0.07,0.91-0.05,1.68,0.06,2.31
			c0.09,0.56,0.31,1.01,0.65,1.36c0.34,0.35,0.75,0.48,1.23,0.4c0.12-0.02,0.24-0.05,0.35-0.1c0.12-0.05,0.23-0.11,0.32-0.18
			c0.1-0.07,0.22-0.18,0.37-0.33c0.15-0.15,0.25-0.27,0.32-0.37c0.07-0.1,0.34-0.5,0.82-1.19c1.37-1.99,2.34-3.33,2.93-4.01
			c0.46-0.53,1-0.97,1.61-1.32c0.62-0.35,1.24-0.58,1.87-0.69c0.49-0.08,0.99-0.09,1.49-0.03c0.5,0.06,0.99,0.2,1.46,0.4
			c0.47,0.21,0.91,0.47,1.32,0.81c0.41,0.33,0.76,0.71,1.06,1.14c0.3,0.43,0.64,1.08,1.03,1.96c0.35-0.04,0.55-0.06,0.61-0.07
			l1.04-0.19l1.83-0.31c0.18,1.17,0.33,2.14,0.46,2.91c0.14,0.85,0.32,1.81,0.52,2.88c-1.2,0.15-1.89,0.24-2.1,0.27l-1.38,0.23
			c0.03,1.08-0.01,2.16-0.13,3.24c-1.71,0.37-3.49,0.77-5.32,1.21c0.25-0.93,0.4-1.78,0.44-2.54c0.05-0.76,0.03-1.38-0.05-1.86
			c-0.09-0.55-0.29-0.98-0.61-1.29c-0.31-0.32-0.67-0.44-1.06-0.37c-0.34,0.06-0.65,0.22-0.91,0.48c-0.26,0.26-0.55,0.61-0.84,1.06
			c-1.07,1.61-1.94,2.81-2.61,3.6c-0.67,0.79-1.33,1.38-1.99,1.76c-0.65,0.39-1.32,0.64-2.01,0.75c-0.57,0.1-1.11,0.11-1.63,0.05
			c-0.52-0.06-1.01-0.19-1.48-0.4c-0.46-0.21-0.89-0.46-1.28-0.77c-0.39-0.31-0.74-0.63-1.04-0.98c-0.3-0.34-0.67-0.87-1.11-1.56
			l-2.04,0.31c-0.67,0.11-1.32,0.23-1.95,0.35c-0.18-1.17-0.32-2.09-0.44-2.78c-0.12-0.68-0.3-1.69-0.54-3.02
			c0.76-0.07,1.71-0.21,2.85-0.4l0.66-0.11c-0.03-0.89-0.03-1.63,0-2.23c0.03-0.6,0.11-1.35,0.25-2.24
			C108.06,86.19,109.89,85.79,110.88,85.52z"/>
	</g>
	<g>
		<g>
			
				<rect x="8.47" y="67.61" transform="matrix(0.63 0.7766 -0.7766 0.63 116.2238 -24.9708)" class="st27" width="151.71" height="83.77"/>
			<path class="st41" d="M111.43,174.56l30.97-25.13c-4.77-5.88-3.87-14.51,2.01-19.28L76.49,46.43
				c-5.88,4.77-14.51,3.87-19.28-2.01L26.23,69.55c4.77,5.88,3.87,14.51-2.01,19.28l67.93,83.72
				C98.03,167.79,106.66,168.69,111.43,174.56z"/>
			<path class="st27" d="M99.02,127.61c-10.01,8.12-24.7,6.59-32.82-3.42s-6.59-24.7,3.42-32.82c10.01-8.12,24.7-6.59,32.82,3.42
				C110.55,104.8,109.02,119.49,99.02,127.61z"/>
		</g>
		<path class="st40" d="M76.24,105.95c0.23,1.14,0.52,2.14,0.87,2.98c0.34,0.85,0.7,1.53,1.08,2.05c0.33,0.46,0.72,0.77,1.18,0.93
			c0.46,0.16,0.89,0.1,1.28-0.18c0.1-0.07,0.19-0.15,0.27-0.25c0.09-0.1,0.16-0.2,0.21-0.3c0.06-0.11,0.12-0.26,0.18-0.45
			c0.07-0.19,0.11-0.35,0.13-0.47c0.02-0.12,0.09-0.6,0.21-1.43c0.35-2.39,0.64-4.02,0.86-4.89c0.18-0.68,0.47-1.31,0.87-1.9
			c0.4-0.59,0.86-1.07,1.37-1.44c0.4-0.29,0.84-0.52,1.32-0.68c0.48-0.16,0.97-0.26,1.49-0.28c0.52-0.02,1.03,0.02,1.54,0.14
			c0.51,0.12,1,0.3,1.45,0.56c0.46,0.25,1.05,0.69,1.79,1.3c0.29-0.18,0.47-0.3,0.52-0.33l0.85-0.63l1.5-1.08
			c0.67,0.97,1.24,1.77,1.69,2.41c0.51,0.7,1.08,1.49,1.74,2.36c-1.01,0.66-1.6,1.05-1.76,1.17l-1.13,0.82
			c0.5,0.96,0.94,1.95,1.31,2.96c-1.38,1.08-2.79,2.23-4.24,3.43c-0.19-0.95-0.43-1.77-0.72-2.48c-0.29-0.7-0.58-1.25-0.87-1.65
			c-0.32-0.45-0.69-0.75-1.11-0.89c-0.42-0.15-0.79-0.1-1.12,0.13c-0.28,0.2-0.48,0.48-0.61,0.83c-0.12,0.35-0.22,0.79-0.29,1.32
			c-0.25,1.92-0.5,3.38-0.75,4.38c-0.25,1-0.59,1.82-1.01,2.46c-0.42,0.63-0.91,1.16-1.47,1.56c-0.47,0.34-0.95,0.59-1.44,0.77
			c-0.49,0.18-1,0.27-1.5,0.29c-0.51,0.02-1.01-0.02-1.49-0.13c-0.49-0.1-0.94-0.24-1.36-0.42c-0.42-0.18-0.98-0.48-1.68-0.91
			l-1.69,1.18c-0.55,0.4-1.09,0.79-1.6,1.17c-0.67-0.97-1.21-1.74-1.62-2.3c-0.41-0.56-1.01-1.39-1.82-2.47
			c0.65-0.4,1.44-0.94,2.38-1.62l0.54-0.39c-0.42-0.78-0.74-1.45-0.98-2.01c-0.24-0.56-0.5-1.26-0.77-2.12
			C74,107.78,75.47,106.62,76.24,105.95z"/>
	</g>
	<g>
		<g>
			
				<rect x="161.72" y="54.38" transform="matrix(-0.3564 0.9343 -0.9343 -0.3564 412.1907 -91.3887)" class="st27" width="151.71" height="83.77"/>
			<path class="st41" d="M194.84,152.34l37.26,14.21c2.7-7.07,10.62-10.62,17.69-7.92L288.22,57.9c-7.07-2.7-10.62-10.62-7.92-17.69
				l-37.26-14.21c-2.7,7.07-10.62,10.62-17.69,7.92l-38.42,100.73C193.99,137.34,197.54,145.26,194.84,152.34z"/>
			<path class="st27" d="M229.26,118.07c-12.04-4.59-18.08-18.07-13.48-30.11s18.07-18.07,30.11-13.48
				c12.04,4.59,18.07,18.07,13.48,30.11C254.78,116.62,241.29,122.66,229.26,118.07z"/>
		</g>
		<path class="st40" d="M236.59,87.5c-0.87,0.77-1.59,1.52-2.15,2.24c-0.56,0.72-0.97,1.37-1.24,1.96c-0.23,0.51-0.3,1.01-0.21,1.49
			c0.09,0.48,0.35,0.82,0.8,1.02c0.11,0.05,0.23,0.09,0.35,0.11c0.13,0.03,0.25,0.04,0.37,0.03c0.12-0.01,0.28-0.03,0.48-0.07
			c0.2-0.04,0.36-0.08,0.47-0.13c0.11-0.04,0.56-0.22,1.35-0.54c2.24-0.9,3.8-1.46,4.66-1.7c0.68-0.18,1.37-0.25,2.08-0.2
			c0.71,0.05,1.35,0.21,1.94,0.47c0.45,0.2,0.87,0.47,1.25,0.8c0.38,0.33,0.71,0.71,0.99,1.15c0.28,0.43,0.5,0.9,0.65,1.41
			c0.15,0.5,0.24,1.01,0.24,1.54c0.01,0.52-0.07,1.26-0.23,2.2c0.31,0.16,0.49,0.26,0.55,0.28l0.97,0.42l1.69,0.76
			c-0.5,1.07-0.92,1.96-1.23,2.67c-0.36,0.79-0.75,1.68-1.17,2.68c-1.08-0.54-1.71-0.86-1.9-0.94l-1.28-0.57
			c-0.58,0.92-1.21,1.79-1.91,2.62c-1.63-0.65-3.33-1.3-5.1-1.95c0.73-0.64,1.32-1.26,1.78-1.86c0.46-0.61,0.79-1.13,0.99-1.58
			c0.23-0.5,0.3-0.97,0.21-1.41c-0.08-0.44-0.31-0.74-0.67-0.9c-0.32-0.14-0.66-0.18-1.02-0.11c-0.36,0.07-0.79,0.21-1.29,0.41
			c-1.78,0.74-3.17,1.26-4.17,1.54c-0.99,0.28-1.87,0.4-2.63,0.36c-0.76-0.04-1.45-0.21-2.09-0.49c-0.52-0.24-0.99-0.52-1.39-0.86
			c-0.4-0.34-0.74-0.72-1.01-1.16c-0.27-0.43-0.48-0.88-0.64-1.36c-0.16-0.47-0.26-0.94-0.32-1.39c-0.06-0.45-0.08-1.09-0.05-1.91
			l-1.87-0.88c-0.62-0.28-1.23-0.55-1.82-0.8c0.5-1.07,0.9-1.92,1.18-2.55c0.28-0.63,0.69-1.57,1.23-2.82
			c0.67,0.36,1.53,0.78,2.59,1.25l0.61,0.27c0.47-0.75,0.88-1.37,1.24-1.86c0.36-0.49,0.84-1.06,1.45-1.73
			C233.88,86.48,235.62,87.17,236.59,87.5z"/>
	</g>
	<g>
		<g>
			
				<rect x="103.72" y="35.38" transform="matrix(-0.0349 0.9994 -0.9994 -0.0349 263.0696 -99.4907)" class="st27" width="151.71" height="83.77"/>
			<path class="st41" d="M157.28,144.15l39.86,1.39c0.26-7.57,6.61-13.49,14.18-13.22l3.77-107.75
				c-7.57-0.26-13.49-6.61-13.22-14.18L162.01,9c-0.26,7.57-6.61,13.49-14.18,13.22l-3.77,107.75
				C151.62,130.23,157.54,136.58,157.28,144.15z"/>
			<path class="st27" d="M178.76,100.59c-12.88-0.45-22.95-11.25-22.5-24.13s11.25-22.95,24.13-22.5
				c12.88,0.45,22.95,11.25,22.5,24.13C202.44,90.96,191.63,101.04,178.76,100.59z"/>
		</g>
		<path class="st40" d="M175.8,69.29c-0.57,1.01-1.01,1.95-1.31,2.82c-0.3,0.86-0.48,1.62-0.54,2.25c-0.05,0.56,0.04,1.05,0.28,1.48
			c0.24,0.42,0.6,0.66,1.08,0.7c0.12,0.01,0.24,0.01,0.37-0.01c0.13-0.02,0.25-0.05,0.36-0.09c0.11-0.04,0.26-0.12,0.44-0.22
			c0.18-0.1,0.31-0.19,0.41-0.27c0.09-0.08,0.46-0.39,1.1-0.94c1.83-1.57,3.12-2.61,3.86-3.12c0.58-0.39,1.21-0.68,1.9-0.86
			c0.69-0.18,1.35-0.24,1.98-0.18c0.5,0.05,0.98,0.16,1.44,0.35c0.47,0.19,0.9,0.45,1.31,0.77c0.41,0.32,0.76,0.69,1.07,1.12
			c0.31,0.43,0.55,0.88,0.73,1.37c0.18,0.49,0.34,1.21,0.49,2.16c0.34,0.05,0.55,0.08,0.61,0.09l1.05,0.08l1.85,0.17
			c-0.13,1.17-0.23,2.15-0.3,2.93c-0.08,0.86-0.16,1.84-0.24,2.92c-1.19-0.17-1.89-0.26-2.1-0.28l-1.39-0.13
			c-0.25,1.05-0.57,2.09-0.96,3.1c-1.75-0.09-3.57-0.15-5.45-0.2c0.48-0.84,0.84-1.62,1.08-2.34c0.24-0.72,0.38-1.33,0.43-1.81
			c0.05-0.55-0.03-1.02-0.25-1.4c-0.22-0.39-0.53-0.6-0.93-0.63c-0.35-0.03-0.68,0.04-1,0.23c-0.32,0.18-0.68,0.45-1.09,0.81
			c-1.45,1.28-2.59,2.22-3.44,2.81c-0.85,0.59-1.64,0.99-2.37,1.19c-0.73,0.2-1.44,0.27-2.13,0.21c-0.57-0.05-1.1-0.18-1.59-0.37
			c-0.49-0.19-0.93-0.45-1.32-0.77c-0.39-0.32-0.74-0.68-1.04-1.08c-0.3-0.4-0.55-0.8-0.75-1.21c-0.2-0.41-0.42-1.01-0.67-1.79
			l-2.05-0.22c-0.68-0.06-1.34-0.12-1.98-0.17c0.13-1.17,0.23-2.11,0.29-2.8c0.06-0.69,0.15-1.71,0.25-3.06
			c0.75,0.12,1.7,0.24,2.86,0.35l0.66,0.06c0.2-0.86,0.39-1.58,0.58-2.16c0.18-0.58,0.46-1.28,0.82-2.1
			C172.91,69.2,174.78,69.29,175.8,69.29z"/>
	</g>
	<g>
		<g>
			<g>
				<g>
					<g>
						<g>
							<path class="st1" d="M270.73,162.01l-26.1,0.01c-23.87,0-43.22-19.34-43.22-43.21v-0.01c0-24.26,19.67-43.94,43.93-43.94
								l24.67-0.01c24.27-0.01,43.94,19.67,43.94,43.93v0C313.95,142.65,294.6,162.01,270.73,162.01z"/>
							<path class="st2" d="M277.29,115.08c0-4.38-2.25-8.3-5.82-10.96c-3.09-2.31-5.01-5.75-5.01-9.47v-19.8l-12.18,0v19.79
								c0,3.72-1.91,7.16-5.01,9.47c-3.57,2.66-5.82,6.58-5.82,10.96c0,8.02,7.57,14.53,16.92,14.53
								C269.71,129.6,277.29,123.1,277.29,115.08z"/>
							<path class="st3" d="M270.73,162.01l-26.1,0.01c-23.87,0-43.22-19.34-43.22-43.21v-0.01c0-24.26,19.67-43.94,43.93-43.94
								l24.67-0.01c24.27-0.01,43.94,19.67,43.94,43.93v0C313.95,142.65,294.6,162.01,270.73,162.01z"/>
							<path class="st4" d="M258.52,153.9c26.32,0,41.97-6.86,51.23-15.16c-2.77,5.63-6.63,10.62-11.31,14.72
								c-7.07,5.34-16.03,8.55-25.8,8.55l-29.89,0.01c-10.45,0-19.99-3.67-27.27-9.7c-5.58-5.47-9.75-12.38-11.92-20.13
								c0-0.08,0-0.15,0-0.23C209.79,141.62,224.43,153.91,258.52,153.9z"/>
						</g>
						<g>
							<path class="st5" d="M267.88,107.34c-0.12,4.08-3.73,7.3-8.06,7.19c-4.33-0.11-7.74-3.52-7.62-7.6
								C252.33,102.84,268,103.25,267.88,107.34z"/>
						</g>
					</g>
				</g>
				<g>
					<path class="st6" d="M260.12,116.32c-0.03,1.66-2.31,2.96-5.08,2.91c-2.77-0.05-4.99-1.43-4.96-3.09"/>
					<path class="st6" d="M270.2,116.14c-0.03,1.66-2.31,2.96-5.08,2.91c-2.77-0.05-4.99-1.43-4.96-3.09"/>
				</g>
				<g>
					<path class="st1" d="M274.09,78.8c0,0,6.54-38.76,18.91-34.33s23.87,32.55,7.62,47.06"/>
					<path class="st3" d="M274.09,78.8c0,0,6.54-38.76,18.91-34.33s22.07,32.4,7.37,45.94"/>
					<path class="st2" d="M282.11,79.03c-0.73-0.19,4.57-25,10.4-23.88c5.84,1.12,13.2,16.74,3.05,30.35
						C295.56,85.5,287.18,80.37,282.11,79.03z"/>
				</g>
				<g>
					<path class="st1" d="M239.62,78.8c0,0-6.54-38.76-18.91-34.33c-12.37,4.43-23.87,32.55-7.62,47.06"/>
					<path class="st3" d="M239.62,78.8c0,0-6.54-38.76-18.91-34.33c-12.37,4.43-22.07,32.4-7.37,45.94"/>
					<path class="st2" d="M231.61,79.03c0.73-0.19-4.57-25-10.4-23.88c-5.84,1.12-13.2,16.74-3.05,30.35
						C218.16,85.5,226.53,80.37,231.61,79.03z"/>
				</g>
			</g>
			<g>
				<ellipse class="st7" cx="222.13" cy="120.98" rx="9.64" ry="9.1"/>
				<ellipse class="st7" cx="293.19" cy="120.98" rx="9.64" ry="9.1"/>
			</g>
		</g>
		<path class="st28" d="M234.81,107.34l-0.01,3.43c0,0.22,0.08,0.41,0.23,0.55c0.16,0.15,0.39,0.23,0.63,0.23
			c0.43,0,0.86-0.27,0.86-0.79l0.01-3.22c0.12,0,0.25,0.01,0.38,0.01c0.5,0,1-0.03,1.49-0.08c0.02,0.42,0.03,0.84,0.04,1.26
			c0.02,0.64,0.04,1.29,0.07,1.93c0.03,0.51,0.47,0.78,0.89,0.78c0.24,0,0.47-0.09,0.62-0.23c0.14-0.14,0.21-0.33,0.2-0.56
			c-0.04-0.71-0.06-1.41-0.08-2.12c-0.01-0.46-0.03-0.92-0.05-1.38c2.03-0.56,3.24-1.62,3.58-3.16c0.53-2.35-1.47-4.03-3.84-4.69
			c-0.04-2-0.04-3.99-0.04-5.99c1.06,0.24,1.85,0.7,2.31,1.32c0.17,0.23,0.42,0.36,0.71,0.36c0.34,0,0.68-0.18,0.83-0.45
			c0.13-0.24,0.11-0.5-0.07-0.74c-0.75-1.02-2.09-1.76-3.79-2.08c0,0-0.01-1.19-0.01-1.47c0-0.22-0.08-0.41-0.23-0.55
			c-0.16-0.15-0.38-0.23-0.63-0.23c-0.43,0-0.86,0.27-0.86,0.78c0,0.26,0.01,1.31,0.01,1.31l-0.14,0c-0.46,0-0.92,0.03-1.37,0.09
			l0-1.29c0-0.22-0.08-0.41-0.23-0.55c-0.16-0.15-0.39-0.23-0.63-0.23c-0.43,0-0.86,0.27-0.86,0.79l0,1.67
			c-1.98,0.66-3.24,1.9-3.57,3.48c-0.43,2.05,1.32,3.67,3.24,4.38c0.09,0.03,0.18,0.06,0.32,0.1l-0.01,5.64
			c-1.23-0.41-2.08-1.27-2.57-2.62c-0.13-0.34-0.44-0.55-0.83-0.55c-0.3,0-0.58,0.13-0.74,0.34c-0.14,0.19-0.17,0.42-0.08,0.66
			C231.42,105.68,232.72,106.89,234.81,107.34z M233.55,94.81c0.3-0.38,0.73-0.71,1.29-0.99l-0.01,4.4c-1.06-0.4-1.69-0.9-1.87-1.49
			C232.78,96.18,232.98,95.54,233.55,94.81z M236.54,98.71l0.01-5.44c0.49-0.09,1.01-0.14,1.53-0.14c0,1.95,0,3.9,0.04,5.85
			l-0.07-0.01c-0.45-0.06-0.9-0.12-1.34-0.22L236.54,98.71z M238.26,104.29l0.06,1.51c-0.32,0.06-0.62,0.09-0.86,0.1
			c-0.13,0.01-0.25,0.01-0.38,0.01c-0.19,0-0.38-0.01-0.56-0.02l0.01-5.63l0.34,0.04c0.42,0.04,0.84,0.09,1.25,0.15
			C238.16,101.74,238.21,103.02,238.26,104.29z M242.22,103.47c-0.06,0.69-0.86,1.36-2.2,1.87l-0.06-1.4
			c-0.04-0.98-0.08-1.97-0.11-2.95C241.49,101.86,242.29,102.7,242.22,103.47z"/>
		<path class="st28" d="M279.53,107.7l-0.01,3.43c0,0.22,0.08,0.41,0.23,0.55c0.16,0.15,0.39,0.23,0.63,0.23
			c0.43,0,0.86-0.27,0.86-0.79l0.01-3.22c0.12,0,0.25,0.01,0.38,0.01c0.5,0,1-0.03,1.49-0.08c0.02,0.42,0.03,0.84,0.04,1.26
			c0.02,0.64,0.04,1.29,0.07,1.93c0.03,0.51,0.47,0.78,0.89,0.78c0.24,0,0.47-0.09,0.62-0.23c0.14-0.14,0.21-0.33,0.2-0.56
			c-0.04-0.71-0.06-1.41-0.08-2.12c-0.01-0.46-0.03-0.92-0.05-1.38c2.03-0.56,3.24-1.62,3.58-3.16c0.53-2.35-1.47-4.03-3.84-4.69
			c-0.04-2-0.04-3.99-0.04-5.99c1.06,0.24,1.85,0.7,2.31,1.32c0.17,0.23,0.42,0.36,0.71,0.36c0.34,0,0.68-0.18,0.83-0.45
			c0.13-0.24,0.11-0.5-0.07-0.74c-0.75-1.02-2.09-1.76-3.79-2.08c0,0-0.01-1.19-0.01-1.47c0-0.22-0.08-0.41-0.23-0.55
			c-0.16-0.15-0.38-0.23-0.63-0.23c-0.43,0-0.86,0.27-0.86,0.78c0,0.26,0.01,1.31,0.01,1.31l-0.14,0c-0.46,0-0.92,0.03-1.37,0.09
			l0-1.29c0-0.22-0.08-0.41-0.23-0.55c-0.16-0.15-0.39-0.23-0.63-0.23c-0.43,0-0.86,0.27-0.86,0.79l0,1.67
			c-1.98,0.66-3.24,1.9-3.57,3.48c-0.43,2.05,1.32,3.67,3.24,4.38c0.09,0.03,0.18,0.06,0.32,0.1l-0.01,5.64
			c-1.23-0.41-2.08-1.27-2.57-2.62c-0.13-0.34-0.44-0.55-0.83-0.55c-0.3,0-0.58,0.13-0.74,0.34c-0.14,0.19-0.17,0.42-0.08,0.66
			C276.14,106.04,277.44,107.24,279.53,107.7z M278.26,95.16c0.3-0.38,0.73-0.71,1.29-0.99l-0.01,4.4c-1.06-0.4-1.69-0.9-1.87-1.49
			C277.5,96.54,277.7,95.89,278.26,95.16z M281.26,99.06l0.01-5.44c0.49-0.09,1.01-0.14,1.53-0.14c0,1.95,0,3.9,0.04,5.85
			l-0.07-0.01c-0.45-0.06-0.9-0.12-1.34-0.22L281.26,99.06z M282.98,104.65l0.06,1.51c-0.32,0.06-0.62,0.09-0.86,0.1
			c-0.13,0.01-0.25,0.01-0.38,0.01c-0.19,0-0.38-0.01-0.56-0.02l0.01-5.63l0.34,0.04c0.42,0.04,0.84,0.09,1.25,0.15
			C282.88,102.09,282.93,103.37,282.98,104.65z M286.94,103.83c-0.06,0.69-0.86,1.36-2.2,1.87l-0.06-1.4
			c-0.04-0.98-0.08-1.97-0.11-2.95C286.21,102.22,287.01,103.06,286.94,103.83z"/>
	</g>
	<g>
		<g>
			<path class="st29" d="M141.58,118.05c0,25.02-20.09,33.39-44.87,33.39c-24.78,0-44.86-8.37-44.86-33.39
				c0-25.02,20.09-45.31,44.86-45.31C121.5,72.74,141.58,93.03,141.58,118.05z"/>
			<path class="st30" d="M141.58,118.05c0,25.02-20.09,33.39-44.87,33.39c-24.78,0-44.86-8.37-44.86-33.39
				c0-25.02,20.09-45.31,44.86-45.31C121.5,72.74,141.58,93.03,141.58,118.05z"/>
		</g>
		<g>
			<g>
				<path class="st31" d="M105.19,149.4c0,4.42-3.79,8-8.48,8c-4.68,0-8.48-3.58-8.48-8c0-4.42,3.79-8,8.48-8
					C101.4,141.4,105.19,144.98,105.19,149.4z"/>
				<path class="st30" d="M105.19,149.4c0,4.42-3.79,8-8.48,8c-4.68,0-8.48-3.58-8.48-8c0-4.42,3.79-8,8.48-8
					C101.4,141.4,105.19,144.98,105.19,149.4z"/>
			</g>
			<line class="st32" x1="96.72" y1="144.17" x2="96.72" y2="149.4"/>
		</g>
		<path class="st33" d="M74.58,76.11c0,0-18.22-22.98-19.1-22.98c-0.88,0-13.78,15.09-5.14,46.23L74.58,76.11z"/>
		<path class="st30" d="M74.58,76.11c0,0-18.22-22.98-19.1-22.98c-0.88,0-13.78,15.09-5.14,46.23L74.58,76.11z"/>
		<path class="st33" d="M118.86,76.11c0,0,18.22-22.98,19.1-22.98s13.78,15.09,5.14,46.23L118.86,76.11z"/>
		<path class="st30" d="M118.86,76.11c0,0,18.22-22.98,19.1-22.98s13.78,15.09,5.14,46.23L118.86,76.11z"/>
		<path class="st33" d="M144.74,110.78c0,25.02-21.5,33.39-48.02,33.39c-26.52,0-48.02-8.37-48.02-33.39
			c0-25.02,21.5-45.31,48.02-45.31C123.24,65.47,144.74,85.75,144.74,110.78z"/>
		<path class="st34" d="M103.38,67.96c0-0.69-0.01-1.38-0.03-2.05c-2.17-0.28-4.38-0.44-6.63-0.44c-2.25,0-4.46,0.16-6.62,0.44
			c-0.02,0.67-0.03,1.36-0.03,2.05c0,11.2,2.98,20.28,6.66,20.28C100.4,88.24,103.38,79.16,103.38,67.96z"/>
		<path class="st34" d="M86.61,66.48c-4.28,0.87-8.35,2.27-12.12,4.14c1.15,6.05,3.3,10.12,5.76,10.12
			C83.24,80.74,85.77,74.74,86.61,66.48z"/>
		<path class="st34" d="M118.95,70.62c-3.77-1.87-7.84-3.27-12.12-4.14c0.84,8.26,3.37,14.26,6.36,14.26
			C115.65,80.74,117.8,76.67,118.95,70.62z"/>
		<path class="st34" d="M96.72,116.17c-16.17,0-30.68,5.93-40.62,15.32c8.5,9.19,23.51,12.68,40.62,12.68
			c17.11,0,32.11-3.49,40.62-12.68C127.4,122.1,112.89,116.17,96.72,116.17z"/>
		<path class="st30" d="M144.74,110.78c0,25.02-21.5,33.39-48.02,33.39c-26.52,0-48.02-8.37-48.02-33.39
			c0-25.02,21.5-45.31,48.02-45.31C123.24,65.47,144.74,85.75,144.74,110.78z"/>
		<path class="st35" d="M90.91,114.65c0-2.77,2.6-2.56,5.81-2.56c3.21,0,5.81-0.21,5.81,2.56c0,2.77-2.6,6.54-5.81,6.54
			C93.51,121.19,90.91,117.42,90.91,114.65z"/>
		<line class="st32" x1="48.71" y1="110.01" x2="63.61" y2="110.01"/>
		<line class="st32" x1="50.56" y1="122.35" x2="63.61" y2="117.61"/>
		<line class="st32" x1="56.1" y1="131.51" x2="63.9" y2="125.42"/>
		<line class="st32" x1="144.74" y1="110.01" x2="129.83" y2="110.01"/>
		<line class="st32" x1="142.88" y1="122.35" x2="129.83" y2="117.61"/>
		<line class="st32" x1="137.34" y1="131.51" x2="129.54" y2="125.42"/>
		<path class="st8" d="M93.95,123.2c-1.13,0-2.08,0.8-2.22,1.86c-0.1,0.79-0.16,1.61-0.16,2.46c0,5.56,2.3,10.07,5.15,10.07
			c2.84,0,5.15-4.51,5.15-10.07c0-0.85-0.06-1.68-0.16-2.47c-0.14-1.06-1.08-1.86-2.22-1.86H93.95z"/>
		<path class="st32" d="M91.73,125.06c-0.1,0.79-0.16,1.61-0.16,2.46c0,5.56,2.3,10.07,5.15,10.07c2.84,0,5.15-4.51,5.15-10.07
			c0-0.85-0.06-1.68-0.16-2.47"/>
		<g>
			<path class="st32" d="M109.5,123.34c-5.55,5.14-12.78-0.23-12.78-3.36c0,3.13-7.23,8.5-12.78,3.36"/>
		</g>
		<path class="st36" d="M74.66,111.87l-0.01,3.43c0,0.22,0.08,0.41,0.23,0.55c0.16,0.15,0.39,0.23,0.63,0.23
			c0.43,0,0.86-0.27,0.86-0.79l0.01-3.22c0.12,0,0.25,0.01,0.38,0.01c0.5,0,1-0.03,1.49-0.08c0.02,0.42,0.03,0.84,0.04,1.26
			c0.02,0.64,0.04,1.29,0.07,1.93c0.03,0.51,0.47,0.78,0.89,0.78c0.24,0,0.47-0.09,0.62-0.23c0.14-0.14,0.21-0.33,0.2-0.56
			c-0.04-0.71-0.06-1.41-0.08-2.12c-0.01-0.46-0.03-0.92-0.05-1.38c2.03-0.56,3.24-1.62,3.58-3.16c0.53-2.35-1.47-4.03-3.84-4.69
			c-0.04-2-0.04-3.99-0.04-5.99c1.06,0.24,1.85,0.7,2.31,1.32c0.17,0.23,0.42,0.36,0.71,0.36c0.34,0,0.68-0.18,0.83-0.45
			c0.13-0.24,0.11-0.5-0.07-0.74c-0.75-1.02-2.09-1.76-3.79-2.08c0,0-0.01-1.19-0.01-1.47c0-0.22-0.08-0.41-0.23-0.55
			c-0.16-0.15-0.38-0.23-0.63-0.23c-0.43,0-0.86,0.27-0.86,0.78c0,0.26,0.01,1.31,0.01,1.31l-0.14,0c-0.46,0-0.92,0.03-1.37,0.09
			l0-1.29c0-0.22-0.08-0.41-0.23-0.55c-0.16-0.15-0.39-0.23-0.63-0.23c-0.43,0-0.86,0.27-0.86,0.79l0,1.67
			c-1.98,0.66-3.24,1.9-3.57,3.48c-0.43,2.05,1.32,3.67,3.24,4.38c0.09,0.03,0.18,0.06,0.32,0.1l-0.01,5.64
			c-1.23-0.41-2.08-1.27-2.57-2.62c-0.13-0.34-0.44-0.55-0.83-0.55c-0.3,0-0.58,0.13-0.74,0.34c-0.14,0.19-0.17,0.42-0.08,0.66
			C71.27,110.21,72.57,111.41,74.66,111.87z M73.4,99.34c0.3-0.38,0.73-0.71,1.29-0.99l-0.01,4.4c-1.06-0.4-1.69-0.9-1.87-1.49
			C72.63,100.71,72.83,100.06,73.4,99.34z M76.39,103.24l0.01-5.44c0.49-0.09,1.01-0.14,1.53-0.14c0,1.95,0,3.9,0.04,5.85
			l-0.07-0.01c-0.45-0.06-0.9-0.12-1.34-0.22L76.39,103.24z M78.12,108.82l0.06,1.51c-0.32,0.06-0.62,0.09-0.86,0.1
			c-0.13,0.01-0.25,0.01-0.38,0.01c-0.19,0-0.38-0.01-0.56-0.02l0.01-5.63l0.34,0.04c0.42,0.04,0.84,0.09,1.25,0.15
			C78.01,106.27,78.07,107.54,78.12,108.82z M82.08,108c-0.06,0.69-0.86,1.36-2.2,1.87l-0.06-1.4c-0.04-0.98-0.08-1.97-0.11-2.95
			C81.35,106.39,82.14,107.23,82.08,108z"/>
		<path class="st36" d="M114.19,112.22l-0.01,3.43c0,0.22,0.08,0.41,0.23,0.55c0.16,0.15,0.39,0.23,0.63,0.23
			c0.43,0,0.86-0.27,0.86-0.79l0.01-3.22c0.12,0,0.25,0.01,0.38,0.01c0.5,0,1-0.03,1.49-0.08c0.02,0.42,0.03,0.84,0.04,1.26
			c0.02,0.64,0.04,1.29,0.07,1.93c0.03,0.51,0.47,0.78,0.89,0.78c0.24,0,0.47-0.09,0.62-0.23c0.14-0.14,0.21-0.33,0.2-0.56
			c-0.04-0.71-0.06-1.41-0.08-2.12c-0.01-0.46-0.03-0.92-0.05-1.38c2.03-0.56,3.24-1.62,3.58-3.16c0.53-2.35-1.47-4.03-3.84-4.69
			c-0.04-2-0.04-3.99-0.04-5.99c1.06,0.24,1.85,0.7,2.31,1.32c0.17,0.23,0.42,0.36,0.71,0.36c0.34,0,0.68-0.18,0.83-0.45
			c0.13-0.24,0.11-0.5-0.07-0.74c-0.75-1.02-2.09-1.76-3.79-2.08c0,0-0.01-1.19-0.01-1.47c0-0.22-0.08-0.41-0.23-0.55
			c-0.16-0.15-0.38-0.23-0.63-0.23c-0.43,0-0.86,0.27-0.86,0.78c0,0.26,0.01,1.31,0.01,1.31l-0.14,0c-0.46,0-0.92,0.03-1.37,0.09
			l0-1.29c0-0.22-0.08-0.41-0.23-0.55c-0.16-0.15-0.39-0.23-0.63-0.23c-0.43,0-0.86,0.27-0.86,0.79l0,1.67
			c-1.98,0.66-3.24,1.9-3.57,3.48c-0.43,2.05,1.32,3.67,3.24,4.38c0.09,0.03,0.18,0.06,0.32,0.1l-0.01,5.64
			c-1.23-0.41-2.08-1.27-2.57-2.62c-0.13-0.34-0.44-0.55-0.83-0.55c-0.3,0-0.58,0.13-0.74,0.34c-0.14,0.19-0.17,0.42-0.08,0.66
			C110.8,110.56,112.1,111.77,114.19,112.22z M112.93,99.69c0.3-0.38,0.73-0.71,1.29-0.99l-0.01,4.4c-1.06-0.4-1.69-0.9-1.87-1.49
			C112.16,101.06,112.36,100.42,112.93,99.69z M115.92,103.59l0.01-5.44c0.49-0.09,1.01-0.14,1.53-0.14c0,1.95,0,3.9,0.04,5.85
			l-0.07-0.01c-0.45-0.06-0.9-0.12-1.34-0.22L115.92,103.59z M117.65,109.17l0.06,1.51c-0.32,0.06-0.62,0.09-0.86,0.1
			c-0.13,0.01-0.25,0.01-0.38,0.01c-0.19,0-0.38-0.01-0.56-0.02l0.01-5.63l0.34,0.04c0.42,0.04,0.84,0.09,1.25,0.15
			C117.54,106.62,117.59,107.9,117.65,109.17z M121.6,108.35c-0.06,0.69-0.86,1.36-2.2,1.87l-0.06-1.4
			c-0.04-0.98-0.08-1.97-0.11-2.95C120.87,106.74,121.67,107.58,121.6,108.35z"/>
	</g>
	<path class="st26" d="M15.84,131.27v86.52v12.45c0,6.88,5.57,12.45,12.45,12.45h299.76c6.88,0,12.45-5.57,12.45-12.45v-12.45
		v-86.52H15.84z"/>
	<g>
		<g>
			<rect x="36.04" y="148.41" class="st39" width="124.87" height="74.02"/>
		</g>
		<g>
			<rect x="195.42" y="148.41" class="st39" width="124.87" height="74.02"/>
		</g>
	</g>
	<g>
		<path class="st37" d="M33.8,165.57v7.93l-3.3,3.36l-14.07-0.23l0.06,5.79l7.24-0.23l8.46-0.12v8.28l-3.3,3.36l-12.16-0.23
			c-0.04,0-0.02,1.35,0.06,4.05v1.27l0.06,5.33l-3.3,3.3H3.74v-38.63l3.24-3.24H33.8z M6.99,166.09c-0.5,0.46-1,0.97-1.51,1.51
			c-1.04,0.97-1.56,1.49-1.56,1.56c0.54-0.46,1.06-0.96,1.56-1.51C6.48,166.73,6.99,166.21,6.99,166.09z M6.99,167.66v-1.1
			l-3.07,3.07v1.16l1.56-1.51L6.99,167.66z M6.99,169.22v-1.1l-3.07,3.01v1.22l1.56-1.56L6.99,169.22z M6.99,170.78v-1.16
			l-3.07,3.01v1.22l1.56-1.51L6.99,170.78z M6.99,171.19l-3.07,3.01v1.22l3.07-3.07V171.19z M6.99,173.85v-1.1l-3.07,3.07v1.1
			l1.56-1.5L6.99,173.85z M6.99,175.42v-1.1l-3.07,3.01v1.22l1.56-1.51L6.99,175.42z M6.99,176.98v-1.16l-3.07,3.07v1.22l1.56-1.56
			L6.99,176.98z M6.99,178.49v-1.16l-3.07,3.07v1.22l1.56-1.51L6.99,178.49z M6.99,180.05v-1.1l-3.07,3.01v1.16l1.56-1.51
			L6.99,180.05z M6.99,180.45l-3.07,3.01v1.22l3.07-3.07V180.45z M6.99,183.12v-1.1l-3.07,3.01v1.16l1.56-1.51L6.99,183.12z
			 M6.99,183.58l-3.07,3.07v1.1l3.07-3.07V183.58z M6.99,186.25v-1.16l-3.07,3.07v1.22l1.56-1.51L6.99,186.25z M6.99,187.81v-1.16
			l-3.07,3.07v1.16l1.56-1.51L6.99,187.81z M6.99,189.32v-1.16l-3.07,3.07v1.22l1.56-1.56L6.99,189.32z M6.99,190.82v-1.04
			l-3.07,3.01v1.16l1.56-1.51L6.99,190.82z M6.99,191.28l-3.07,3.01v1.22l3.07-3.07V191.28z M6.99,193.95v-1.16l-3.07,3.01v1.22
			l1.56-1.51L6.99,193.95z M6.99,194.41l-3.07,3.07v1.1l3.07-3.07V194.41z M6.99,197.08v-1.16l-3.07,3.07v1.22l1.56-1.56
			L6.99,197.08z M6.99,198.58v-1.1l-3.07,3.01v1.22l1.56-1.51L6.99,198.58z M6.99,200.15v-1.16l-3.07,3.07v1.22l1.56-1.56
			L6.99,200.15z M6.99,201.65v-1.1l-3.07,3.01v1.22l1.56-1.51L6.99,201.65z M6.99,203.27v-1.16l-3.07,3.01v1.16l1.56-1.51
			L6.99,203.27z M6.99,203.62l-3.07,3.01v0.64h0.69l3.07-3.07h-0.7V203.62z M7.97,204.2l-3.07,3.07h1.22l3.07-3.07H7.97z
			 M10.69,204.2H9.53l-3.07,3.07h1.22l1.51-1.56L10.69,204.2z M12.26,204.2h-1.22l-3.07,3.07h1.22l1.51-1.56L12.26,204.2z
			 M12.55,204.2l-1.51,1.51l-1.51,1.56h1.16l3.07-3.07H12.55z M15.33,204.2h-1.1l-3.07,3.07h1.1l1.51-1.56L15.33,204.2z
			 M16.37,204.2h-0.64l-3.07,3.07h0.69l1.51-1.56L16.37,204.2z M16.54,173.27c-0.08,0-0.13,0.02-0.15,0.06
			c-0.02,0.04-0.03,0.1-0.03,0.17v0.23l0.23-0.23c0.08-0.04,0.13-0.08,0.17-0.12c0.04-0.04,0.04-0.06,0-0.06
			C16.77,173.29,16.7,173.27,16.54,173.27z M18.8,173.33l-2.37,2.26v0.81h0.23c0.08,0,0.24-0.11,0.49-0.32
			c0.25-0.21,0.65-0.61,1.19-1.19l1.56-1.51h-0.17L18.8,173.33z M18.34,173.33h-1.1l-0.41,0.35l-0.41,0.46l0.06,1.1l0.93-0.93
			L18.34,173.33z M16.77,190.07c-0.08,0-0.13,0.02-0.14,0.06c-0.02,0.04-0.03,0.1-0.03,0.17v0.23l0.23-0.17
			c0.04-0.04,0.08-0.08,0.12-0.12c0.04-0.04,0.04-0.08,0-0.12C16.95,190.09,16.89,190.07,16.77,190.07z M18.57,190.13h-1.22
			l-0.69,0.75l0.06,1.1l0.87-0.93L18.57,190.13z M18.98,190.21c-0.12,0.06-0.5,0.42-1.16,1.07l-1.16,1.16v0.81h0.17
			c0.08,0,0.24-0.12,0.49-0.35c0.25-0.23,0.65-0.62,1.19-1.16l1.56-1.56h-0.41C19.32,190.15,19.09,190.16,18.98,190.21z
			 M21.41,173.39h-1.16l-1.56,1.51l-1.51,1.51h1.16l1.56-1.51L21.41,173.39z M21.64,190.18h-1.22l-3.07,3.07h1.22l1.56-1.51
			L21.64,190.18z M21.75,173.39l-3.01,3.01l1.16,0.06l1.45-1.51c0.58-0.58,0.97-0.97,1.19-1.19c0.21-0.21,0.28-0.32,0.2-0.32
			L21.75,173.39z M20.48,191.69c-1,1-1.49,1.53-1.45,1.56l0.98,0.06l3.07-3.07H22.1C22.02,190.2,21.48,190.69,20.48,191.69z
			 M24.48,173.45h-1.22l-3.01,3.01h1.16l1.56-1.51L24.48,173.45z M23.49,190.24l-3.07,3.07h1.22l3.07-3.07H23.49z M24.82,173.45
			l-3.01,3.01l1.1,0.06l3.07-3.01h-0.29L24.82,173.45z M26.1,190.3h-1.16l-3.07,3.07h1.22l1.51-1.56L26.1,190.3z M27.55,173.5h-1.22
			l-3.07,3.01h1.22l1.51-1.51L27.55,173.5z M26.45,190.3l-3.01,3.07l1.16,0.06l1.45-1.56c0.58-0.54,0.97-0.93,1.19-1.16
			c0.21-0.23,0.28-0.35,0.2-0.35L26.45,190.3z M28.3,173.48c-0.19-0.02-0.44,0.12-0.75,0.41c-0.31,0.29-0.7,0.67-1.16,1.13
			l-1.51,1.51l1.04,0.06l3.01-3.07h-0.29C28.61,173.5,28.49,173.5,28.3,173.48z M27.95,190.36l-1.51,1.51l-1.51,1.56h1.16l3.07-3.07
			H27.95z M29.4,173.5l-3.07,3.07h1.22l3.07-3.07H29.4z M29.52,190.36l-3.01,3.07l1.16,0.06l3.07-3.07h-0.29L29.52,190.36z
			 M30.91,173.5l-3.01,3.07l1.04,0.06l3.07-3.07h-0.17L30.91,173.5z M31.72,190.42h-0.7l-3.07,3.07h0.69l1.51-1.56L31.72,190.42z
			 M33.34,173.56h-0.98l-3.07,3.07h0.98l1.56-1.51L33.34,173.56z"/>
		<path class="st37" d="M38.96,176.81h12.1v19.4l3.88-0.41c0.04,0,0.06-2.61,0.06-7.82v-7.88l3.3-3.3h9.09v28.32l-3.3,3.3H55v-1.62
			l-16.33,1.04v-20.68h-3.01v-7.07l1.68-1.62L38.96,176.81z M38.96,178.6v-1.04l-3.07,3.01v1.16l1.56-1.51L38.96,178.6z
			 M38.96,179.06l-3.07,3.01v1.22l3.07-3.07V179.06z M38.96,181.73v-1.16l-3.07,3.01v1.22l1.56-1.51L38.96,181.73z M38.96,182.13
			l-3.07,3.01v1.22l3.07-3.07V182.13z M38.96,183.81c-0.04-0.04-0.56,0.43-1.56,1.42c-1,0.98-1.51,1.52-1.51,1.59
			c0,0.04,0.04,0.07,0.12,0.09c0.08,0.02,0.21,0.03,0.41,0.03h0.46l3.07-3.07h-0.46C39.13,183.87,38.96,183.85,38.96,183.81z
			 M41.45,183.87h-1.16l-3.07,3.07h1.22l1.51-1.56L41.45,183.87z M41.91,183.87l-1.62,1.51l-1.45,1.56l0.06,1.04l3.07-3.07v-0.52
			L41.91,183.87z M41.91,185.38l-3.01,3.01v1.1l3.07-3.07L41.91,185.38z M41.97,188.04l-0.06-1.16l-3.01,3.07v1.22l1.51-1.56
			L41.97,188.04z M41.97,189.55l-0.06-1.16l-3.01,3.07v1.22l1.51-1.51L41.97,189.55z M41.97,190.53l-0.06-0.58l-1.51,1.51
			l-1.51,1.56v1.16l3.07-3.07V190.53z M41.97,192.62l-0.06-1.1l-3.01,3.01v1.22l1.51-1.56L41.97,192.62z M41.91,193.08l-3.01,2.95
			v1.22l3.07-3.07L41.91,193.08z M41.97,195.74l-0.06-1.16l-3.01,3.01v1.22l1.51-1.56L41.97,195.74z M41.91,196.15l-3.01,3.07v1.1
			l3.07-3.07L41.91,196.15z M41.97,198.29l-0.06-0.58l-1.51,1.51l-1.51,1.56v1.16l3.07-3.07V198.29z M41.97,200.38l-0.06-1.16
			l-3.01,3.07v1.22l1.51-1.56L41.97,200.38z M41.97,201.88l-0.06-1.1l-3.01,3.01v1.22l1.51-1.51L41.97,201.88z M41.97,203.45
			l-0.06-1.1l-3.01,3.01v1.22l1.51-1.56L41.97,203.45z M41.91,203.85l-3.01,3.01v0.75h0.29c0.12-0.04,0.3-0.15,0.55-0.35
			c0.25-0.19,0.65-0.58,1.19-1.16l1.45-1.51h-0.41L41.91,203.85z M44.11,204.49l-1.33,0.06l-3.01,3.01l1.16-0.06
			c0.08,0,0.62-0.5,1.62-1.51L44.11,204.49z M45.33,204.69c0.19-0.21,0.25-0.32,0.17-0.32l-1.04,0.06l-3.01,3.07l1.22-0.06
			l1.56-1.56C44.77,205.3,45.13,204.9,45.33,204.69z M47.18,204.32c-0.04-0.04-0.12-0.05-0.23-0.03c-0.12,0.02-0.25,0.03-0.41,0.03
			l-0.41,0.06l-1.56,1.45l-1.45,1.56l1.16-0.06l1.56-1.56C46.73,204.87,47.18,204.39,47.18,204.32z M48.92,204.14l-0.7,0.06
			l-0.46,0.06l-1.56,1.45l-1.45,1.56l1.22-0.06l1.51-1.56C48.59,204.64,49.07,204.14,48.92,204.14z M50.54,204.03l-1.16,0.12
			l-3.01,3.01l1.22-0.06l1.51-1.51C50.13,204.55,50.62,204.03,50.54,204.03z M52.28,203.91l-1.22,0.12l-3.01,3.01l1.16-0.06
			l1.56-1.51C51.31,204.97,51.81,204.45,52.28,203.91z M53.96,203.79l-0.64,0.06l-0.58,0.06l-3.07,3.01l1.33-0.06l1.51-1.51
			C53.01,204.86,53.49,204.33,53.96,203.79z M55.58,203.74h-0.41c-0.35,0.04-0.58,0.07-0.69,0.09c-0.12,0.02-0.3,0.16-0.55,0.43
			c-0.25,0.27-0.61,0.64-1.07,1.1l-1.56,1.45l1.33-0.06l1.45-1.5L55.58,203.74z M56.85,203.68c-0.08,0-0.23,0.01-0.46,0.03
			c-0.23,0.02-0.49,0.16-0.78,0.43c-0.29,0.27-0.67,0.64-1.13,1.1l-1.51,1.45l1.27-0.06l2.95-2.95H56.85z M58.24,203.56l-0.58,0.06
			l-3.01,3.01h0.58v0.58l3.07-3.07v-0.35C58.3,203.64,58.28,203.56,58.24,203.56z M58.3,177.85v-0.52l-3.07,3.07v0.52l1.56-1.5
			L58.3,177.85z M58.3,179.41v-1.16l-3.07,3.07v1.16l1.56-1.51L58.3,179.41z M58.3,180.92v-1.1l-3.07,3.01v1.22l1.56-1.56
			L58.3,180.92z M58.3,182.48v-1.1l-3.07,3.01v1.16l1.56-1.51L58.3,182.48z M58.3,182.89l-3.07,3.01v1.22l3.07-3.07V182.89z
			 M58.3,185.55v-1.16l-3.07,3.01v1.22l1.56-1.51L58.3,185.55z M58.3,186.01l-3.07,3.07v1.1l3.07-3.07V186.01z M58.3,188.68v-1.16
			l-3.07,3.07v1.22l1.56-1.56L58.3,188.68z M58.3,190.18v-1.1l-3.07,3.07v1.16l1.56-1.51L58.3,190.18z M58.3,191.75v-1.1l-3.07,3.01
			v1.22l1.56-1.56L58.3,191.75z M58.3,193.31v-1.16l-3.07,3.01v0.64l0.75-0.12l1.16-1.16L58.3,193.31z M58.3,204.55l-3.07,3.01v0.64
			h0.58l3.01-3.07H58.3V204.55z M60.38,205.13h-1.22l-3.07,3.07h1.22l1.51-1.56L60.38,205.13z M58.3,194.88v-1.16l-0.98,0.93
			c-0.62,0.66-0.89,0.98-0.81,0.98l1.22-0.12l0.23-0.35L58.3,194.88z M60.79,205.13l-1.51,1.51l-1.51,1.56h1.04l3.07-3.07H60.79z
			 M58.3,195.22c-0.04,0-0.07,0.01-0.09,0.03c-0.02,0.02-0.03,0.05-0.03,0.09c-0.08,0.08-0.08,0.12,0,0.12
			c0.08,0,0.12-0.04,0.12-0.12V195.22z M63.57,205.13h-1.22l-3.07,3.07h1.22l1.51-1.56L63.57,205.13z M63.86,205.13l-3.07,3.07h1.22
			l3.07-3.07H63.86z M66.58,205.13h-1.16l-3.07,3.07h1.22l1.51-1.56L66.58,205.13z"/>
		<path class="st37" d="M74.63,175.71h9.61v1.51l10.19-1.27l0.35,4.11l0.35,4.05l-3.36,3.3l-7.53,0.58v16.56l-3.3,3.24h-9.61v-28.84
			l1.68-1.62L74.63,175.71z M74.63,177.04v-0.87l-3.07,3.01v0.99l1.56-1.51L74.63,177.04z M74.63,178.66v-1.16l-3.07,3.01v1.16
			l1.56-1.5L74.63,178.66z M74.63,179.01l-3.07,3.01v1.22l3.07-3.07V179.01z M74.63,181.67v-1.04l-3.07,3.01v1.1l1.56-1.51
			L74.63,181.67z M74.63,183.29v-1.16l-3.07,3.07v1.22l1.56-1.56L74.63,183.29z M74.63,184.8v-1.16l-3.07,3.07v1.22l1.56-1.51
			L74.63,184.8z M74.63,186.36v-1.16l-3.07,3.07v1.16l1.56-1.51L74.63,186.36z M74.63,187.87v-1.1l-3.07,3.01V191l1.56-1.56
			L74.63,187.87z M74.63,189.43v-1.1l-3.07,2.95v1.22l1.56-1.5L74.63,189.43z M74.63,189.84l-3.07,3.01v1.22l3.07-3.07V189.84z
			 M74.63,192.5v-1.1l-3.07,3.07v1.1l1.56-1.51L74.63,192.5z M74.63,194.12v-1.16l-3.07,3.07v1.16l1.56-1.51L74.63,194.12z
			 M74.63,195.63v-1.16l-3.07,3.07v1.22l1.56-1.56L74.63,195.63z M74.63,197.13v-1.1l-3.07,3.01v1.22l1.56-1.51L74.63,197.13z
			 M74.63,198.7v-1.1l-3.07,3.01v1.22l1.56-1.56L74.63,198.7z M74.63,200.26v-1.16l-3.07,3.01v1.22l1.56-1.5L74.63,200.26z
			 M74.63,201.83v-1.16l-3.07,3.01v1.16l1.56-1.51L74.63,201.83z M74.63,202.23l-3.07,3.07v1.1l3.07-3.07V202.23z M74.63,204.55
			v-0.75l-3.07,3.01v0.81h0.23c0.08,0,0.24-0.12,0.49-0.35c0.25-0.23,0.67-0.64,1.25-1.22s0.96-0.98,1.16-1.19
			c0.19-0.21,0.25-0.32,0.17-0.32H74.63z M76.6,204.55h-1.22l-3.07,3.07h1.22l1.51-1.56L76.6,204.55z M76.95,204.55l-1.56,1.51
			l-1.51,1.56h1.16l3.07-3.07H76.95z M79.67,204.55h-1.22l-3.07,3.07h1.22l1.51-1.56L79.67,204.55z M79.96,204.55l-1.51,1.51
			l-1.51,1.56h1.16l3.07-3.07H79.96z M82.74,204.55h-1.22l-3.07,3.07h1.22l1.51-1.56L82.74,204.55z M83.78,204.55h-0.64l-3.07,3.07
			h0.69l1.51-1.56L83.78,204.55z M87.08,184.74l-1.33,0.06l-1.51,1.62v1.1l1.39-1.33L87.08,184.74z M85.46,184.86l-1.22,0.06v1.1
			l0.58-0.58L85.46,184.86z M88.7,184.62l-1.22,0.06l-3.01,3.07l1.16-0.12l1.56-1.45L88.7,184.62z M90.44,184.51h-0.69l-0.58,0.06
			l-3.07,3.01l1.33-0.06l1.51-1.51L90.44,184.51z M91.57,184.91c0.25-0.27,0.4-0.44,0.43-0.52l-1.22,0.12l-3.07,2.95l1.33-0.06
			l1.51-1.51C90.98,185.51,91.32,185.18,91.57,184.91z M93.63,184.28l-0.64,0.06l-0.52,0.06l-1.51,1.45l-1.45,1.56l1.16-0.06
			l1.56-1.56L93.63,184.28z M94.21,184.57c0.19-0.23,0.25-0.35,0.17-0.35l-1.85,1.56l-1.39,1.51h0.23c0.08,0,0.66-0.52,1.74-1.56
			C93.65,185.18,94.01,184.8,94.21,184.57z"/>
		<path class="st37" d="M99.82,175.71h9.61v1.51l10.19-1.27l0.35,4.11l0.35,4.05l-3.36,3.3l-7.53,0.58v16.56l-3.3,3.24h-9.61v-28.84
			l1.68-1.62L99.82,175.71z M99.82,177.04v-0.87l-3.07,3.01v0.99l1.56-1.51L99.82,177.04z M99.82,178.66v-1.16l-3.07,3.01v1.16
			l1.56-1.5L99.82,178.66z M99.82,179.01l-3.07,3.01v1.22l3.07-3.07V179.01z M99.82,181.67v-1.04l-3.07,3.01v1.1l1.56-1.51
			L99.82,181.67z M99.82,183.29v-1.16l-3.07,3.07v1.22l1.56-1.56L99.82,183.29z M99.82,184.8v-1.16l-3.07,3.07v1.22l1.56-1.51
			L99.82,184.8z M99.82,186.36v-1.16l-3.07,3.07v1.16l1.56-1.51L99.82,186.36z M99.82,187.87v-1.1l-3.07,3.01V191l1.56-1.56
			L99.82,187.87z M99.82,189.43v-1.1l-3.07,2.95v1.22l1.56-1.5L99.82,189.43z M99.82,189.84l-3.07,3.01v1.22l3.07-3.07V189.84z
			 M99.82,192.5v-1.1l-3.07,3.07v1.1l1.56-1.51L99.82,192.5z M99.82,194.12v-1.16l-3.07,3.07v1.16l1.56-1.51L99.82,194.12z
			 M99.82,195.63v-1.16l-3.07,3.07v1.22l1.56-1.56L99.82,195.63z M99.82,197.13v-1.1l-3.07,3.01v1.22l1.56-1.51L99.82,197.13z
			 M99.82,198.7v-1.1l-3.07,3.01v1.22l1.56-1.56L99.82,198.7z M99.82,200.26v-1.16l-3.07,3.01v1.22l1.56-1.5L99.82,200.26z
			 M99.82,201.83v-1.16l-3.07,3.01v1.16l1.56-1.51L99.82,201.83z M99.82,202.23l-3.07,3.07v1.1l3.07-3.07V202.23z M99.82,204.55
			v-0.75l-3.07,3.01v0.81h0.23c0.08,0,0.24-0.12,0.49-0.35c0.25-0.23,0.67-0.64,1.25-1.22s0.96-0.98,1.16-1.19
			c0.19-0.21,0.25-0.32,0.17-0.32H99.82z M101.79,204.55h-1.22l-3.07,3.07h1.22l1.51-1.56L101.79,204.55z M102.14,204.55l-1.56,1.51
			l-1.51,1.56h1.16l3.07-3.07H102.14z M104.86,204.55h-1.22l-3.07,3.07h1.22l1.51-1.56L104.86,204.55z M105.15,204.55l-1.51,1.51
			l-1.51,1.56h1.16l3.07-3.07H105.15z M107.93,204.55h-1.22l-3.07,3.07h1.22l1.51-1.56L107.93,204.55z M108.97,204.55h-0.64
			l-3.07,3.07h0.69l1.51-1.56L108.97,204.55z M112.28,184.74l-1.33,0.06l-1.51,1.62v1.1l1.39-1.33L112.28,184.74z M110.65,184.86
			l-1.22,0.06v1.1l0.58-0.58L110.65,184.86z M113.9,184.62l-1.22,0.06l-3.01,3.07l1.16-0.12l1.56-1.45L113.9,184.62z M115.63,184.51
			h-0.69l-0.58,0.06l-3.07,3.01l1.33-0.06l1.51-1.51L115.63,184.51z M116.76,184.91c0.25-0.27,0.4-0.44,0.43-0.52l-1.22,0.12
			l-3.07,2.95l1.33-0.06l1.51-1.51C116.17,185.51,116.51,185.18,116.76,184.91z M118.82,184.28l-0.64,0.06l-0.52,0.06l-1.51,1.45
			l-1.45,1.56l1.16-0.06l1.56-1.56L118.82,184.28z M119.4,184.57c0.19-0.23,0.25-0.35,0.17-0.35l-1.85,1.56l-1.39,1.51h0.23
			c0.08,0,0.66-0.52,1.74-1.56C118.84,185.18,119.21,184.8,119.4,184.57z"/>
		<path class="st37" d="M125.25,176.52l8.98,0.06l-0.29,9.44l-0.41,9.32l1.62,0.12l1.68,0.06l-0.41-15.64l3.36-3.36h9.44v39.85
			l-3.36,3.42h-23.46l0.23-7.88l3.36-3.36l11.12,0.7l-0.06-1.68v-1.62l-15.23,0.06l0.06-26.12l1.62-1.68L125.25,176.52z
			 M123.63,202.64l-1.51,1.51l-0.06,1.33c0.12,0,0.62-0.48,1.51-1.45l1.56-1.56v-1.33L123.63,202.64z M125.19,178.08l-0.06-1.04
			l-3.01,3.07v1.1l1.51-1.56L125.19,178.08z M123.63,180.05l-1.51,1.51v0.64l0.06,0.64l3.01-3.01v-1.33L123.63,180.05z
			 M125.13,180.28l-3.01,3.01v1.27l3.07-3.07L125.13,180.28z M125.19,183.29l-0.06-1.27l-3.01,3.01v1.39l1.51-1.5L125.19,183.29z
			 M125.19,185.03v-0.7l-0.06-0.64l-1.51,1.51l-1.51,1.56v1.27l1.51-1.51L125.19,185.03z M125.19,186.77l-0.06-1.27l-3.01,3.01v1.33
			l1.51-1.56L125.19,186.77z M125.19,188.5l-0.06-1.33l-3.01,3.07v1.33l1.51-1.56L125.19,188.5z M125.13,188.97l-3.01,3.01v1.33
			l3.07-3.07L125.13,188.97z M125.13,190.71l-1.56,1.51l-1.45,1.51v1.33l3.07-3.07v-0.64L125.13,190.71z M125.19,193.08l-0.06-0.64
			l-1.51,1.51l-1.51,1.56v1.27l3.07-3.07V193.08z M123.63,195.74l-1.51,1.5v0.64l0.06,0.64l3.01-3.01v-1.33
			C124.65,194.64,124.13,195.16,123.63,195.74z M125.19,197.19l-0.06-1.33l-3.01,3.01v1.45l1.51-1.56L125.19,197.19z M123.63,199.22
			l-1.51,1.51v0.64l0.06,0.58l3.01-3.01v-1.27C124.65,198.16,124.13,198.68,123.63,199.22z M125.19,200.67l-0.06-1.27l-3.01,3.01
			v1.39l1.51-1.51L125.19,200.67z M125.25,202.69l-3.01,3.07l1.22,0.06l3.07-3.01l-0.17-0.06L125.25,202.69z M125.71,214.51
			c0-0.08-0.5,0.42-1.51,1.51l-1.56,1.45l-0.06,1.45l3.07-3.01v-0.75L125.71,214.51z M125.65,216.36c-0.04-0.04-0.56,0.44-1.56,1.45
			c-1,1-1.51,1.54-1.51,1.62c0,0.04,0.05,0.07,0.14,0.09c0.1,0.02,0.24,0.03,0.43,0.03h0.52l3.07-3.07h-0.52
			C125.85,216.48,125.65,216.44,125.65,216.36z M125.77,212.83c0-0.12-0.5,0.35-1.51,1.39l-1.56,1.51v1.33l3.01-3.01l0.06-0.52
			V212.83z M122.76,213.99v1.27l3.01-2.95v-1.39L122.76,213.99z M122.87,212.19c-0.04,0.04-0.06,0.27-0.06,0.7v0.52l3.07-3.07v-1.16
			L122.87,212.19z M126.99,202.75l-3.07,3.07h1.33l3.07-3.07H126.99z M127.22,216.48l-1.56,1.51l-1.51,1.56h1.27l3.07-3.07H127.22z
			 M128.72,202.75l-3.07,3.01l1.33,0.06l3.07-3.07H128.72z M130.23,216.48h-1.27l-3.07,3.07h1.33l1.51-1.56L130.23,216.48z
			 M130.46,202.75l-3.07,3.07h1.33l3.07-3.07H130.46z M132.02,216.48h-1.33l-3.07,3.07h1.33l1.51-1.56L132.02,216.48z
			 M133.41,202.69l-1.22,0.06l-3.01,3.07l1.27-0.06l1.56-1.51C133.03,203.22,133.49,202.69,133.41,202.69z M133.76,216.48h-1.33
			l-3.07,3.07h1.33l1.51-1.56L133.76,216.48z M135.38,202.69h-1.39l-3.07,3.07h1.39l1.56-1.51L135.38,202.69z M134.11,216.48
			l-1.56,1.51l-1.51,1.56h1.39l3.07-3.07H134.11z M137,202.69h-1.27l-3.07,3.07h1.33l1.51-1.51L137,202.69z M135.85,216.48
			l-1.56,1.51l-1.51,1.56h1.39l3.07-3.07H135.85z M137.47,202.69l-3.07,3.07h1.33l3.07-3.07H137.47z M138.92,216.48h-1.27
			l-1.56,1.51l-1.45,1.56h1.22l1.51-1.56L138.92,216.48z M139.32,202.69c-0.04,0-0.26,0.2-0.67,0.61s-0.72,0.72-0.96,0.96
			l-1.45,1.45h0.52c0.19,0,0.33,0.01,0.41,0.03c0.08,0.02,0.12,0.05,0.12,0.09c0,0.08,0.52-0.41,1.56-1.45l1.51-1.62L139.32,202.69z
			 M140.77,216.48h-1.45l-3.07,3.07h1.45l1.51-1.56L140.77,216.48z M139.73,177.27l-0.06-0.23l-1.51,1.51
			c-0.58,0.58-0.98,0.98-1.19,1.22c-0.21,0.23-0.32,0.41-0.32,0.52l0.06,0.17l1.45-1.51C139.21,177.94,139.73,177.38,139.73,177.27z
			 M139.67,177.91l-3.01,3.07l0.06,1.22l3.07-3.07v-0.35L139.67,177.91z M139.78,179.59c-0.54,0.5-1.06,1.02-1.56,1.56l-1.51,1.45
			v0.52c0,0.43,0.04,0.64,0.12,0.64c0.08,0,0.56-0.46,1.45-1.39l1.56-1.51l-0.06-0.58V179.59z M139.84,182.54l-0.06-1.27l-3.01,2.95
			v1.45l1.51-1.5L139.84,182.54z M138.34,184.51l-1.51,1.56v1.16l3.07-3.01V183L138.34,184.51z M139.38,185.15
			c-0.27,0.23-0.62,0.58-1.04,1.04l-1.51,1.56l0.06,1.22l3.01-2.95v-1.27C139.82,184.78,139.65,184.91,139.38,185.15z M139.9,186.36
			l-3.01,3.07l0.06,1.27l3.01-3.07v-0.35L139.9,186.36z M140.02,189.26l-0.06-1.22l-3.01,2.95v0.58c0,0.42,0.04,0.64,0.12,0.64
			c0.08,0,0.56-0.46,1.45-1.39L140.02,189.26z M140.02,191l-0.06-1.22l-2.95,3.01v1.27l1.51-1.51L140.02,191z M140.07,192.73v-1.27
			l-3.07,3.01v0.52c0,0.23,0.01,0.39,0.03,0.46c0.02,0.08,0.05,0.12,0.09,0.12c0.12,0,0.64-0.48,1.56-1.45L140.07,192.73z
			 M140.36,204.6l-0.06-1.27l-3.01,3.01v1.39l1.56-1.51L140.36,204.6z M138.92,206.52l-1.56,1.56v1.27l3.07-3.01v-1.33
			C139.92,205.47,139.42,205.97,138.92,206.52z M140.13,193.72c0-0.31-0.04-0.46-0.12-0.46c-0.08,0-0.46,0.37-1.16,1.1l-1.22,1.27
			l1.27,0.06l1.22-1.27v-0.52V193.72z M140.42,206.86c0-0.08-0.44,0.31-1.33,1.16c-0.19,0.23-0.43,0.48-0.7,0.75
			c-0.27,0.27-0.41,0.44-0.41,0.52c0,0.04,0.19,0.06,0.58,0.06l0.46,0.06l1.45-1.45v-0.52L140.42,206.86z M142.39,216.48h-1.33
			l-3.01,3.07h1.27l1.51-1.56L142.39,216.48z M140.07,194.88l-0.75,0.87h0.46h0.41L140.07,194.88z M140.48,208.43
			c-0.08,0-0.25,0.17-0.52,0.52c-0.27,0.27-0.41,0.42-0.41,0.46s0.19,0.06,0.58,0.06l0.41,0.06l-0.06-0.52V208.43z M142.8,216.48
			l-1.51,1.51l-1.51,1.56h1.27l3.07-3.07H142.8z M145.87,216.48h-1.27l-1.56,1.51l-1.51,1.56l1.27-0.06l1.56-1.51L145.87,216.48z
			 M147.72,216.42h-1.39l-3.07,3.07h1.45l1.51-1.56L147.72,216.42z M148.7,216.42h-0.64l-3.07,3.07h0.69l1.51-1.56L148.7,216.42z"/>
		<path class="st37" d="M182.06,165.19c0.77-0.13,1.22-0.2,1.33-0.2h0.12l3.42,16.74c0.04,0.04,0.49-1.74,1.36-5.33
			s1.46-6.08,1.77-7.47c0-0.04,0.56-0.62,1.68-1.74l1.62-1.68h8.63v0.17c0,0.16,0.76,3.04,2.29,8.66c1.52,5.62,2.31,8.39,2.35,8.31
			l2.49-14.25l3.42-3.42l11.64,1.97c0.08,0-1.85,6.22-5.79,18.65l-5.91,18.59l-3.3,3.3h-8.4l-2.26-8.22
			c-0.66-2.35-1.18-4.22-1.56-5.59c-0.39-1.37-0.64-2.23-0.75-2.58l-3.01,12.97l-3.36,3.42h-9.03l-10.83-37.53l3.36-3.36l4.92-0.81
			C180.01,165.53,181.29,165.33,182.06,165.19z M173.43,167.42l-0.06-0.41l-1.56,1.51c-0.58,0.58-0.98,1-1.19,1.25
			c-0.21,0.25-0.32,0.42-0.32,0.49l0.12,0.12l1.51-1.51L173.43,167.42z M173.49,167.71l-1.51,1.56l-1.51,1.51l0.23,0.87l1.56-1.51
			l1.51-1.56l-0.12-0.41L173.49,167.71z M173.89,168.87l-3.07,3.07l0.23,0.93l1.51-1.56c1.04-0.96,1.56-1.49,1.56-1.56
			L173.89,168.87z M172.68,171.59l-1.51,1.56l0.29,0.81l1.51-1.51l1.51-1.45l-0.23-0.93L172.68,171.59z M174.82,172.17l-0.29-0.87
			l-1.45,1.51l-1.56,1.56l0.23,0.81l1.56-1.51L174.82,172.17z M174.94,172.46c-0.12,0.08-0.3,0.26-0.55,0.55
			c-0.25,0.29-0.57,0.63-0.96,1.01l-1.56,1.51l0.12,0.46l0.17,0.41l1.51-1.51l1.56-1.51l-0.17-0.41L174.94,172.46z M175.28,173.74
			c0-0.08-0.52,0.41-1.56,1.45l-1.51,1.51l0.23,0.93l3.07-3.07l-0.12-0.35L175.28,173.74z M175.63,174.89l-3.07,3.07l0.23,0.87
			l1.56-1.56c1-0.93,1.51-1.45,1.51-1.56L175.63,174.89z M175.98,176.11l-1.56,1.51l-1.51,1.45l0.12,0.46
			c0.08,0.31,0.13,0.46,0.17,0.46l3.07-2.95l-0.12-0.46L175.98,176.11z M176.33,177.27l-1.56,1.56l-1.51,1.45l0.23,0.93l1.56-1.51
			l1.51-1.56l-0.12-0.41L176.33,177.27z M176.62,178.43l-3.01,3.07l0.29,0.93l1.45-1.51c1.04-1.04,1.56-1.58,1.56-1.62
			L176.62,178.43z M177.02,179.7l-1.56,1.51l-1.51,1.51l0.29,0.81c0,0.08,0.5-0.42,1.51-1.51l1.51-1.51l-0.06-0.41L177.02,179.7z
			 M177.37,180.86l-3.01,3.01l0.17,0.93l1.56-1.51c0.54-0.54,0.93-0.94,1.16-1.19c0.23-0.25,0.35-0.41,0.35-0.49L177.37,180.86z
			 M176.21,183.58l-1.56,1.51l0.12,0.46c0.08,0.27,0.14,0.41,0.17,0.41l3.07-3.01l-0.29-0.87C177.72,182,177.21,182.5,176.21,183.58
			z M178.06,183.29l-1.56,1.51L175,186.3l0.29,0.87l3.01-3.07l-0.06-0.35L178.06,183.29z M178.7,185.32l-0.35-0.87l-3.01,3.07
			l0.29,0.87l1.56-1.56L178.7,185.32z M178.76,185.72c-0.08,0.04-0.25,0.18-0.52,0.43c-0.27,0.25-0.6,0.59-0.98,1.01l-1.56,1.51
			l0.12,0.41l0.17,0.46c0,0.08,0.5-0.42,1.51-1.51l1.56-1.51l-0.12-0.41L178.76,185.72z M179.11,186.83
			c-0.54,0.5-1.06,1.02-1.56,1.56l-1.51,1.51l0.29,0.87l3.01-3.07l-0.12-0.41L179.11,186.83z M179.45,188.04l-1.51,1.56l-1.56,1.51
			l0.12,0.41c0.08,0.27,0.13,0.41,0.17,0.41l3.07-3.01l-0.17-0.41L179.45,188.04z M179.8,189.26l-1.56,1.51l-1.51,1.56l0.29,0.87
			l1.51-1.56l1.56-1.51l-0.12-0.46L179.8,189.26z M180.15,190.42l-3.01,3.07l0.23,0.93l1.51-1.56c1-1,1.51-1.52,1.51-1.56
			L180.15,190.42z M180.5,191.69c0-0.08-0.5,0.43-1.51,1.51l-1.56,1.51l0.29,0.75c0,0.04,0.5-0.44,1.51-1.45l1.56-1.51l-0.12-0.41
			L180.5,191.69z M180.9,192.79l-1.56,1.56c-1,0.93-1.51,1.45-1.51,1.56l0.23,0.87l3.07-3.07L180.9,192.79z M181.19,194.01
			l-1.51,1.51l-1.51,1.56l0.06,0.41c0.08,0.31,0.13,0.46,0.17,0.46l3.07-3.01l-0.17-0.46L181.19,194.01z M181.54,195.28
			c0-0.04-0.5,0.44-1.51,1.45l-1.56,1.51l0.29,0.87l1.51-1.51l1.56-1.45l-0.12-0.46L181.54,195.28z M181.89,196.38l-3.01,3.07
			l0.23,0.87l1.51-1.51c1-1,1.51-1.53,1.51-1.56L181.89,196.38z M182.23,197.66c0-0.08-0.5,0.42-1.51,1.51l-1.51,1.45l0.06,0.46
			l0.17,0.41l1.56-1.45l1.51-1.51l-0.12-0.41L182.23,197.66z M182.58,198.81l-1.51,1.51l-1.56,1.51l0.29,0.93l1.51-1.56l1.56-1.51
			l-0.12-0.41L182.58,198.81z M182.99,200.09c-0.43,0.35-0.95,0.83-1.56,1.45l-1.51,1.56l0.23,0.87l3.01-3.07l-0.06-0.41
			L182.99,200.09z M183.28,201.25l-1.51,1.51l-1.56,1.45l0.29,0.93l3.07-3.01l-0.12-0.41L183.28,201.25z M183.62,202.35l-3.01,3.13
			l0.12,0.52l0.12,0.35l1.51-1.51c1.04-1.04,1.56-1.58,1.56-1.62L183.62,202.35z M183.97,203.65c-0.04-0.02-0.19,0.1-0.46,0.35
			c-0.27,0.25-0.62,0.61-1.04,1.07l-1.51,1.56l0.17,0.64h0.12c0.08,0,0.24-0.12,0.49-0.35c0.25-0.23,0.67-0.62,1.25-1.16l1.51-1.56
			h-0.46v-0.17C184.03,203.79,184.01,203.67,183.97,203.65z M186,204.2h-1.04l-3.07,3.07h1.1l1.51-1.51L186,204.2z M186.46,204.2
			l-3.07,3.07h1.22l3.07-3.07H186.46z M189.18,204.2h-1.22l-3.01,3.07h1.16l1.56-1.51L189.18,204.2z M189.53,204.2l-3.07,3.07h1.22
			l3.07-3.07H189.53z M190.17,178.89l-1.45,1.45l-1.62,1.8v0.12c0,0.12,0.01,0.24,0.03,0.38c0.02,0.14,0.05,0.22,0.09,0.26
			c0,0.04,0.44-0.35,1.33-1.16l1.27-1.33l0.12-0.75L190.17,178.89z M189.71,180.92c-0.04,0-0.44,0.39-1.22,1.16l-1.22,1.22
			l0.17,0.98l1.85-1.79l0.17-0.81L189.71,180.92z M190.69,176.86c-0.12,0-0.62,0.48-1.51,1.45l-1.45,1.45l-0.35,1.45
			c0.12-0.08,0.29-0.24,0.52-0.49c0.23-0.25,0.54-0.55,0.93-0.9l1.45-1.51l0.23-0.7L190.69,176.86z M189.13,183l-0.81,0.81
			l-0.75,0.81l0.17,0.93l1.1-1.04l0.12-0.69L189.13,183z M188.66,185.03l-0.46,0.41l-0.35,0.41l0.06,0.41
			c0,0.23,0.02,0.39,0.06,0.46c0.04,0.08,0.1,0.08,0.17,0c0.08-0.08,0.19-0.39,0.35-0.93L188.66,185.03z M191.15,174.78l-1.45,1.39
			l-1.45,1.51l-0.35,1.51l1.45-1.39l1.45-1.51l0.12-0.75L191.15,174.78z M192.25,204.2h-1.22l-3.07,3.07h1.22l1.56-1.51
			L192.25,204.2z M188.14,187.11c-0.04-0.04-0.06-0.04-0.06,0c-0.04,0.04-0.05,0.08-0.03,0.12c0.02,0.04,0.05,0.04,0.09,0V187.11z
			 M191.67,172.75c-0.04,0-0.54,0.48-1.51,1.45l-1.39,1.45l-0.23,0.69l-0.17,0.81c0.12-0.08,0.29-0.24,0.52-0.49
			c0.23-0.25,0.54-0.55,0.93-0.9l1.45-1.51l0.23-0.75L191.67,172.75z M192.14,170.72l-1.45,1.45l-1.45,1.45l-0.41,1.51l1.51-1.39
			l1.39-1.51l0.17-0.75L192.14,170.72z M192.66,168.7c-0.04,0-0.54,0.48-1.51,1.45l-1.39,1.45l-0.23,0.7l-0.17,0.81
			c0.04,0,0.52-0.5,1.45-1.51l1.51-1.45l0.17-0.7L192.66,168.7z M191.04,205.76l-1.51,1.51l1.56-1.51l1.56-1.56L191.04,205.76z
			 M193.12,166.61c-0.46,0.5-0.95,0.98-1.45,1.45l-1.45,1.39l-0.41,1.62c0.54-0.5,1.04-1,1.51-1.51l1.45-1.39l0.17-0.75
			L193.12,166.61z M191.79,167.54l-1.51,1.51l1.51-1.45c0.54-0.5,1.04-1,1.51-1.51L191.79,167.54z M199.26,186.83
			c-0.43,0.35-0.89,0.79-1.39,1.33l-1.33,1.33l-0.29,1.16l0.12,0.06c0.08,0.04,0.62-0.44,1.62-1.45l1.51-1.56l-0.06-0.35
			L199.26,186.83z M199.55,188.04c-0.43,0.39-0.93,0.89-1.51,1.51l-1.51,1.51l0.06,0.46l0.17,0.46l3.01-3.07l-0.06-0.35
			L199.55,188.04z M198.91,185.61l-0.98,0.93l-0.93,0.98l-0.41,1.51l1.27-1.27c0.46-0.46,0.79-0.79,0.98-0.98
			c0.19-0.19,0.29-0.33,0.29-0.41L198.91,185.61z M199.9,189.26l-1.51,1.51l-1.56,1.56l0.29,0.87l3.01-3.07l-0.12-0.46L199.9,189.26
			z M198.57,184.39c-0.15,0.19-0.35,0.37-0.58,0.52l-0.52,0.64l-0.35,1.39c0.04,0,0.33-0.27,0.87-0.81l0.81-0.87l-0.12-0.46
			L198.57,184.39z M200.25,190.53c-0.08,0.04-0.26,0.18-0.55,0.43s-0.63,0.59-1.01,1.01l-1.51,1.51l0.29,0.87
			c0,0.08,0.5-0.42,1.51-1.51l1.51-1.51l-0.06-0.41L200.25,190.53z M198.51,184.05l-0.29-0.93l-0.12,0.17
			c-0.12,0.08-0.25,0.39-0.41,0.93l-0.17,0.75l0.52-0.41L198.51,184.05z M200.54,191.69c0-0.08-0.5,0.43-1.51,1.51l-1.51,1.51
			l0.06,0.41c0.08,0.27,0.13,0.41,0.17,0.41c0.08-0.04,0.26-0.18,0.55-0.43s0.63-0.59,1.01-1.01l1.51-1.56l-0.12-0.35L200.54,191.69
			z M201.17,193.72l-0.29-0.87l-3.01,3.07l0.23,0.87l1.51-1.51L201.17,193.72z M198.16,182.83c-0.04-0.04-0.07-0.05-0.09-0.03
			c-0.02,0.02-0.03,0.05-0.03,0.09c0,0.04,0.02,0.04,0.06,0C198.14,182.89,198.16,182.87,198.16,182.83z M201.46,194.99l-0.06-0.46
			l-0.17-0.46l-1.56,1.51l-1.45,1.56l0.23,0.87l1.51-1.51L201.46,194.99z M201.81,196.21l-0.29-0.93l-3.01,3.01l0.23,0.93l1.56-1.51
			L201.81,196.21z M201.93,196.44c-0.12,0.08-0.3,0.26-0.55,0.55c-0.25,0.29-0.57,0.63-0.96,1.01l-1.56,1.51l0.06,0.35
			c0,0.04,0.01,0.12,0.03,0.23c0.02,0.12,0.07,0.17,0.15,0.17c0.12,0,0.62-0.44,1.51-1.33l1.56-1.56l-0.12-0.41L201.93,196.44z
			 M202.27,197.77c-0.46,0.39-0.98,0.89-1.56,1.51l-1.51,1.51l0.23,0.87l3.01-3.07l-0.06-0.35L202.27,197.77z M202.56,198.99
			c-0.43,0.35-0.93,0.83-1.51,1.45l-1.56,1.56l0.12,0.41l0.17,0.52l3.07-3.07l-0.12-0.41L202.56,198.99z M202.91,200.2
			c0-0.04-0.5,0.44-1.51,1.45l-1.56,1.51l0.12,0.46c0.08,0.31,0.13,0.46,0.17,0.46l3.07-3.01l-0.12-0.46L202.91,200.2z
			 M203.26,201.42c-0.08,0.04-0.26,0.19-0.55,0.46c-0.29,0.27-0.63,0.62-1.01,1.04l-1.51,1.51l0.23,0.81
			c0.54-0.46,1.06-0.95,1.56-1.45l1.51-1.56l-0.12-0.35L203.26,201.42z M203.55,202.58c-0.5,0.46-1,0.96-1.51,1.5l-1.56,1.56
			l0.12,0.41l0.17,0.41c0,0.08,0.52-0.41,1.56-1.45l1.51-1.56l-0.12-0.41L203.55,202.58z M203.89,203.79c-0.5,0.46-1,0.96-1.51,1.51
			l-1.56,1.56l0.12,0.41h0.58l1.56-1.51l1.51-1.56h-0.58l-0.06-0.17L203.89,203.79z M204.94,204.2l-3.07,3.07h1.22l3.07-3.07H204.94
			z M207.66,204.2h-1.1l-3.07,3.07h1.1l1.56-1.51L207.66,204.2z M209.28,204.2h-1.16l-3.07,3.07h1.16l1.56-1.51L209.28,204.2z
			 M209.63,204.2l-3.07,3.07h1.22l3.07-3.07H209.63z M209.98,179.18l-1.56,1.51l-1.45,1.45l-0.17,0.98c-0.04,0-0.06,0.08-0.06,0.23
			c0.04,0.04,0.16-0.04,0.38-0.23c0.21-0.19,0.59-0.56,1.13-1.1l1.51-1.45l0.12-0.64L209.98,179.18z M209.63,181.03l-1.39,1.39
			l-1.33,1.39l0.23,0.93l2.2-2.26l0.17-0.7L209.63,181.03z M210.27,177.27l-1.45,1.51l-1.51,1.45l-0.12,0.69l-0.12,0.75
			c0.04,0,0.52-0.5,1.45-1.5l1.51-1.45l0.12-0.7L210.27,177.27z M209.28,182.89c-0.35,0.35-0.71,0.69-1.1,1.04l-0.98,1.04l0.23,0.93
			l1.62-1.56l0.12-0.69L209.28,182.89z M210.61,175.42l-1.51,1.5l-1.45,1.45l-0.29,1.45c0.08,0,0.58-0.5,1.51-1.51l1.45-1.45
			l0.17-0.75L210.61,175.42z M208.99,184.8l-0.75,0.75l-0.69,0.64l0.23,0.93l0.93-0.93l0.17-0.64L208.99,184.8z M210.96,173.56
			c-0.54,0.46-1.04,0.96-1.51,1.51l-1.45,1.45l-0.29,1.45c0.04,0,0.52-0.5,1.45-1.51l1.51-1.45l0.17-0.75L210.96,173.56z
			 M208.64,186.71c-0.15,0.08-0.29,0.19-0.41,0.35l-0.35,0.35l0.12,0.41c0.08,0.35,0.14,0.52,0.17,0.52l0.06-0.12
			c0.12-0.12,0.19-0.39,0.23-0.81L208.64,186.71z M211.25,171.71c-0.5,0.46-0.98,0.97-1.45,1.51l-1.51,1.45l-0.23,1.39l3.01-2.95
			l0.06-0.69L211.25,171.71z M212,204.2h-0.87l-3.01,3.07h0.87l1.51-1.51L212,204.2z M208.27,188.56c-0.02,0-0.05,0.02-0.09,0.06
			v0.06l0.06-0.06C208.28,188.58,208.29,188.56,208.27,188.56z M211.6,169.8c-0.5,0.46-1,0.97-1.51,1.51l-1.45,1.45l-0.29,1.45
			l3.01-2.95l0.12-0.75L211.6,169.8z M210.44,169.39l-1.45,1.51l-0.29,1.39l3.01-2.95l0.23-1.39
			C211.4,168.41,210.9,168.89,210.44,169.39z M212.23,166.09c-0.5,0.46-0.98,0.95-1.45,1.45l-1.51,1.51l-0.12,0.52l-0.06,0.75
			l1.45-1.39l1.45-1.51l0.12-0.64L212.23,166.09z"/>
		<path class="st37" d="M247.04,176.34h8.11l-0.46,22.47h2.84v5.73l-3.3,3.3h-11v-1.04c0-0.73-0.02-1.08-0.06-1.04l-15.81,1.97
			l-0.23-13.84l-0.29-13.78l3.3-3.3l15.93,0.52l0.52-0.46L247.04,176.34z M230.13,178.77v-1.16l-3.07,3.01v1.22l1.51-1.56
			L230.13,178.77z M228.57,180.69l-1.51,1.45l0.06,1.16l3.01-3.01v-1.1C230.13,179.14,229.61,179.64,228.57,180.69z M230.13,181.79
			v-1.16l-1.51,1.51l-1.51,1.56v1.16l1.51-1.51L230.13,181.79z M230.19,183.23v-1.1l-3.01,3.07v1.1l1.51-1.51L230.19,183.23z
			 M230.25,184.8l-0.06-1.1l-1.51,1.51l-1.51,1.56l0.06,0.98c0,0.04,0.5-0.44,1.51-1.45L230.25,184.8z M230.25,186.3l-0.06-1.16
			l-2.95,3.01v1.22l1.51-1.56L230.25,186.3z M230.3,187.81l-0.12-1.04l-2.95,3.01v0.35c0,0.39,0.02,0.58,0.06,0.58
			c0.08,0,0.3-0.18,0.67-0.55c0.37-0.37,0.65-0.65,0.84-0.84L230.3,187.81z M230.3,188.22l-3.07,3.01v1.22l3.07-3.07V188.22z
			 M230.3,189.72l-3.07,3.07v0.58l0.06,0.52l3.07-3.01v-0.29L230.3,189.72z M230.36,192.38l-0.06-1.16l-3.01,3.07v1.16l1.56-1.51
			L230.36,192.38z M230.36,192.96c-0.08,0-0.3,0.18-0.67,0.55c-0.37,0.37-0.65,0.65-0.84,0.84l-1.56,1.45l0.06,1.1l3.07-3.07v-0.35
			C230.42,193.14,230.4,192.96,230.36,192.96z M230.42,195.45v-1.16l-3.07,3.07v1.16l1.56-1.51L230.42,195.45z M230.42,195.74
			l-3.01,3.01v1.22l3.07-3.07L230.42,195.74z M230.48,198.41l-0.06-1.04l-3.01,3.01v1.1l1.56-1.51L230.48,198.41z M230.54,198.81
			l-3.07,3.01v1.22l3.07-3.07V198.81z M230.59,201.48l-0.06-1.16l-3.07,3.01v0.58c0,0.31,0.02,0.48,0.06,0.52
			c0.42-0.31,0.95-0.79,1.56-1.45L230.59,201.48z M230.59,202.98l-0.06-1.16l-3.01,3.07v1.22l1.56-1.56L230.59,202.98z
			 M230.65,204.43l-0.12-1.04l-3.01,3.07l0.06,0.98c0.08,0,0.6-0.48,1.56-1.45L230.65,204.43z M232.39,204.2l-1.33,0.23l-2.9,2.95
			l0.69-0.12l0.58-0.06l1.56-1.51C232,204.7,232.47,204.2,232.39,204.2z M234.13,204.03l-1.27,0.12l-2.95,3.01l0.7-0.12h0.58
			l1.56-1.51L234.13,204.03z M235.92,203.79l-1.22,0.17l-1.56,1.51c-1,1-1.47,1.51-1.39,1.51l1.27-0.17l1.45-1.56
			C235.09,204.66,235.57,204.18,235.92,203.79z M237.66,203.56l-1.22,0.17l-1.51,1.45l-1.51,1.56l0.69-0.12l0.69-0.06l1.45-1.51
			C237.31,204.06,237.77,203.56,237.66,203.56z M239.4,203.45c0-0.04-0.04-0.06-0.12-0.06c-0.23,0-0.43,0.02-0.58,0.06l-0.52,0.06
			l-3.01,3.01l1.39-0.17l1.45-1.51C238.93,203.95,239.4,203.48,239.4,203.45z M241.13,203.22c0-0.04-0.04-0.06-0.12-0.06
			c-0.23,0-0.43,0.02-0.58,0.06l-0.52,0.06l-3.01,3.01l1.39-0.17l1.45-1.51C240.67,203.72,241.13,203.25,241.13,203.22z
			 M239.51,184.86h-1.22l0.06,1.04c0.04,0,0.23-0.17,0.58-0.52L239.51,184.86z M241.02,184.86h-1.22l-1.45,1.45l0.06,1.04
			c0,0.08,0.44-0.33,1.33-1.22L241.02,184.86z M242.58,184.86h-1.22l-1.51,1.45l-1.45,1.51c0,0.04,0.17,0.06,0.52,0.06h0.58
			l1.51-1.51L242.58,184.86z M243.62,188.04l-5.21,0.06v0.23l0.17,7.07l0.06,0.29l4.81-0.75l0.06-2.26
			c0.04-0.81,0.06-1.95,0.06-3.42L243.62,188.04z M242.41,203.53c0.31-0.33,0.46-0.51,0.46-0.55c0-0.04-0.04-0.06-0.12-0.06
			l-0.58,0.06l-0.46,0.06l-1.45,1.51c-0.5,0.46-0.98,0.96-1.45,1.51l0.64-0.06l0.58-0.06l1.51-1.56
			C241.81,204.14,242.1,203.86,242.41,203.53z M244.09,184.86h-1.1l-3.07,3.01h1.1l1.56-1.51L244.09,184.86z M244.84,202.64
			l-1.33,0.17l-1.51,1.51c-1,1-1.47,1.51-1.39,1.51l1.27-0.17l1.51-1.51L244.84,202.64z M244.55,184.86l-1.56,1.51l-1.51,1.51
			l1.16-0.06l3.07-2.95H244.55z M246.52,202.46l-0.64,0.06l-0.64,0.06l-3.01,3.01l1.33-0.06l1.51-1.51L246.52,202.46z M246.87,184.8
			h-0.81l-3.07,3.01h0.81v0.46l1.56-1.51c0.58-0.58,0.97-1,1.19-1.27c0.21-0.27,0.32-0.44,0.32-0.52V184.8z M246.52,202.98
			l-1.56,1.45l-1.45,1.56l-0.06,1.16l3.07-3.07V202.98z M247.56,204.55h-1.1l-1.51,1.51c-0.54,0.5-1.04,1-1.51,1.51
			c0,0.04,0.17,0.06,0.52,0.06h0.58l1.51-1.51L247.56,204.55z M246.75,189.89l-0.06-1.16l-2.95,3.01l-0.06,1.22l1.56-1.51
			L246.75,189.89z M246.69,190.3l-3.01,3.01v1.22l3.07-3.07L246.69,190.3z M246.81,186.77v-1.16l-1.51,1.45l-1.56,1.56v1.16
			l1.56-1.51L246.81,186.77z M246.81,187.17l-3.07,3.07v1.1l3.07-3.07V187.17z M246.69,193.02v-1.1l-1.51,1.51
			c-1.04,1-1.49,1.51-1.33,1.51l1.22-0.23l0.81-0.81L246.69,193.02z M247.91,204.55l-3.07,3.07h1.22l3.07-3.07H247.91z
			 M246.06,194.06c-0.39,0.39-0.54,0.58-0.46,0.58l1.1-0.12v-1.04L246.06,194.06z M250.63,204.55h-1.22l-3.01,3.07h1.16l1.56-1.51
			L250.63,204.55z M247.04,177.09v-0.23l-0.29,0.23l-0.23,0.23h0.17c0.04,0.04,0.13,0.04,0.29,0
			C247.02,177.29,247.04,177.21,247.04,177.09z M251.1,204.55l-3.07,3.07h1.1l3.07-3.07H251.1z M253.82,204.55h-1.22l-3.07,3.07
			h1.22l1.56-1.51L253.82,204.55z M255.32,204.55h-1.16l-3.07,3.07h1.22l1.51-1.51L255.32,204.55z M255.67,204.55l-3.07,3.07h1.22
			l3.07-3.07H255.67z"/>
		<path class="st37" d="M271.89,159.66l-0.41,37.35h5.85v7.07l-3.36,3.24h-14.42l-0.58-44.36l3.3-3.3H271.89z M262.27,160.82v-0.7
			l-3.07,3.07v0.64l1.56-1.51L262.27,160.82z M262.27,162.38v-1.16l-3.07,3.07v1.22l1.56-1.56L262.27,162.38z M262.33,163.83
			l-0.06-1.1l-3.07,3.07l0.12,1.1l1.51-1.51L262.33,163.83z M262.27,164.3l-3.01,3.07v1.1l3.07-3.07L262.27,164.3z M262.33,166.96
			l-0.06-1.16l-3.01,3.07v1.22l1.56-1.56L262.33,166.96z M262.39,168.47l-0.12-1.1l-3.01,3.07l0.06,1.04l1.56-1.51L262.39,168.47z
			 M262.39,168.81l-3.07,3.01v1.22l3.07-3.07V168.81z M262.39,171.48v-1.04l-3.07,3.01v1.1l1.56-1.51L262.39,171.48z M262.39,171.94
			l-3.07,3.07l0.06,1.1l3.07-3.07v-0.29L262.39,171.94z M262.45,174.55l-0.06-1.16l-3.01,3.01v1.22l1.56-1.51L262.45,174.55z
			 M262.45,176.11l-0.06-1.1l-3.01,3.07v1.04l1.56-1.51L262.45,176.11z M262.45,176.63c-0.12,0-0.36,0.2-0.72,0.61
			c-0.37,0.41-0.63,0.69-0.78,0.84l-1.56,1.5l0.06,1.1l3.07-3.07v-0.41C262.5,176.83,262.48,176.63,262.45,176.63z M262.5,178.02
			l-3.07,3.01v1.16l3.07-3.07V178.02z M262.5,180.69v-1.16l-3.07,3.01v1.22l1.51-1.56L262.5,180.69z M262.5,181.15
			c0-0.12-0.52,0.39-1.56,1.51l-1.51,1.51l0.06,1.04l3.07-3.01v-0.46L262.5,181.15z M262.56,183.76l-0.06-1.16l-3.01,3.01v1.22
			l1.51-1.56L262.56,183.76z M262.5,184.1l-3.01,3.01v1.22l3.07-3.07L262.5,184.1z M262.56,185.72l-1.56,1.51l-1.45,1.56v0.98
			l3.07-2.95v-0.58L262.56,185.72z M262.62,188.33v-1.16l-3.07,3.01v1.22l1.51-1.56L262.62,188.33z M262.62,188.74l-3.07,2.95v1.22
			l3.07-3.07V188.74z M262.68,191.34l-0.06-1.16l-3.01,3.07v1.22l1.51-1.56L262.68,191.34z M262.68,192.85l-0.06-1.1l-3.01,3.01
			v1.22l1.51-1.51L262.68,192.85z M262.68,194.47l-0.06-1.16l-3.01,3.01v1.16l1.51-1.51L262.68,194.47z M262.74,195.92v-1.16
			l-3.07,3.07v1.22l1.51-1.56L262.74,195.92z M262.74,196.38l-3.07,3.01v1.16l3.07-3.07V196.38z M262.74,199.05v-1.16l-3.07,3.01
			v1.22l1.51-1.56L262.74,199.05z M262.79,200.49l-0.06-1.1l-3.01,3.01v1.22l1.51-1.51L262.79,200.49z M262.79,202.06l-0.06-1.16
			l-3.01,3.07v1.22l1.51-1.56L262.79,202.06z M262.85,203.5l-0.12-1.04l-3.01,3.01l0.06,1.04c0,0.04,0.5-0.44,1.51-1.45
			L262.85,203.5z M262.85,204.03c-0.04-0.04-0.56,0.45-1.56,1.48c-1,1.02-1.51,1.55-1.51,1.59c0,0.04,0.17,0.06,0.52,0.06h0.58
			l3.01-3.07h-0.52L262.85,204.03z M265.46,204.08h-1.22l-3.07,3.07h1.22l1.51-1.56L265.46,204.08z M265.75,204.08l-1.51,1.51
			l-1.51,1.56h1.16l3.07-3.07H265.75z M268.53,204.08h-1.22l-3.07,3.07h1.22l1.51-1.56L268.53,204.08z M268.82,204.08l-3.07,3.07
			h1.22l3.07-3.07H268.82z M271.54,204.08h-1.16l-3.07,3.07h1.22l1.51-1.56L271.54,204.08z M273.1,204.08H272l-3.07,3.07h1.1
			l1.51-1.56L273.1,204.08z M273.51,204.08l-1.51,1.51l-1.51,1.56h1.16l3.07-3.07H273.51z M276.29,204.08h-1.22l-3.07,3.07h1.22
			l1.51-1.56L276.29,204.08z M276.69,204.08c-0.08,0-0.62,0.5-1.62,1.51c-1.04,1.04-1.53,1.56-1.45,1.56c0.08,0,0.64-0.52,1.68-1.56
			C276.31,204.59,276.77,204.08,276.69,204.08z"/>
		<path class="st37" d="M291.29,159.66l-0.41,37.35h5.85v7.07l-3.36,3.24h-14.42l-0.58-44.36l3.3-3.3H291.29z M281.67,160.82v-0.7
			l-3.07,3.07v0.64l1.56-1.51L281.67,160.82z M281.67,162.38v-1.16l-3.07,3.07v1.22l1.56-1.56L281.67,162.38z M281.73,163.83
			l-0.06-1.1l-3.07,3.07l0.12,1.1l1.51-1.51L281.73,163.83z M281.67,164.3l-3.01,3.07v1.1l3.07-3.07L281.67,164.3z M281.73,166.96
			l-0.06-1.16l-3.01,3.07v1.22l1.56-1.56L281.73,166.96z M281.79,168.47l-0.12-1.1l-3.01,3.07l0.06,1.04l1.56-1.51L281.79,168.47z
			 M281.79,168.81l-3.07,3.01v1.22l3.07-3.07V168.81z M281.79,171.48v-1.04l-3.07,3.01v1.1l1.56-1.51L281.79,171.48z M281.79,171.94
			l-3.07,3.07l0.06,1.1l3.07-3.07v-0.29L281.79,171.94z M281.85,174.55l-0.06-1.16l-3.01,3.01v1.22l1.56-1.51L281.85,174.55z
			 M281.85,176.11l-0.06-1.1l-3.01,3.07v1.04l1.56-1.51L281.85,176.11z M281.85,176.63c-0.12,0-0.36,0.2-0.72,0.61
			c-0.37,0.41-0.63,0.69-0.78,0.84l-1.56,1.5l0.06,1.1l3.07-3.07v-0.41C281.9,176.83,281.88,176.63,281.85,176.63z M281.9,178.02
			l-3.07,3.01v1.16l3.07-3.07V178.02z M281.9,180.69v-1.16l-3.07,3.01v1.22l1.51-1.56L281.9,180.69z M281.9,181.15
			c0-0.12-0.52,0.39-1.56,1.51l-1.51,1.51l0.06,1.04l3.07-3.01v-0.46L281.9,181.15z M281.96,183.76l-0.06-1.16l-3.01,3.01v1.22
			l1.51-1.56L281.96,183.76z M281.9,184.1l-3.01,3.01v1.22l3.07-3.07L281.9,184.1z M281.96,185.72l-1.56,1.51l-1.45,1.56v0.98
			l3.07-2.95v-0.58L281.96,185.72z M282.02,188.33v-1.16l-3.07,3.01v1.22l1.51-1.56L282.02,188.33z M282.02,188.74l-3.07,2.95v1.22
			l3.07-3.07V188.74z M282.08,191.34l-0.06-1.16l-3.01,3.07v1.22l1.51-1.56L282.08,191.34z M282.08,192.85l-0.06-1.1l-3.01,3.01
			v1.22l1.51-1.51L282.08,192.85z M282.08,194.47l-0.06-1.16l-3.01,3.01v1.16l1.51-1.51L282.08,194.47z M282.14,195.92v-1.16
			l-3.07,3.07v1.22l1.51-1.56L282.14,195.92z M282.14,196.38l-3.07,3.01v1.16l3.07-3.07V196.38z M282.14,199.05v-1.16l-3.07,3.01
			v1.22l1.51-1.56L282.14,199.05z M282.19,200.49l-0.06-1.1l-3.01,3.01v1.22l1.51-1.51L282.19,200.49z M282.19,202.06l-0.06-1.16
			l-3.01,3.07v1.22l1.51-1.56L282.19,202.06z M282.25,203.5l-0.12-1.04l-3.01,3.01l0.06,1.04c0,0.04,0.5-0.44,1.51-1.45
			L282.25,203.5z M282.25,204.03c-0.04-0.04-0.56,0.45-1.56,1.48c-1,1.02-1.51,1.55-1.51,1.59c0,0.04,0.17,0.06,0.52,0.06h0.58
			l3.01-3.07h-0.52L282.25,204.03z M284.86,204.08h-1.22l-3.07,3.07h1.22l1.51-1.56L284.86,204.08z M285.15,204.08l-1.51,1.51
			l-1.51,1.56h1.16l3.07-3.07H285.15z M287.93,204.08h-1.22l-3.07,3.07h1.22l1.51-1.56L287.93,204.08z M288.22,204.08l-3.07,3.07
			h1.22l3.07-3.07H288.22z M290.94,204.08h-1.16l-3.07,3.07h1.22l1.51-1.56L290.94,204.08z M292.5,204.08h-1.1l-3.07,3.07h1.1
			l1.51-1.56L292.5,204.08z M292.91,204.08l-1.51,1.51l-1.51,1.56h1.16l3.07-3.07H292.91z M295.69,204.08h-1.22l-3.07,3.07h1.22
			l1.51-1.56L295.69,204.08z M296.09,204.08c-0.08,0-0.62,0.5-1.62,1.51c-1.04,1.04-1.53,1.56-1.45,1.56c0.08,0,0.64-0.52,1.68-1.56
			C295.71,204.59,296.17,204.08,296.09,204.08z"/>
		<path class="st37" d="M300.52,176.6c0.29-0.25,0.47-0.38,0.55-0.38l25.83,0.87v16.62l-2.9,2.9l3.48-0.12v7.53l-3.36,3.24l-26,0.58
			c0-0.04-0.03-1.27-0.09-3.71c-0.06-2.43-0.13-5.93-0.2-10.48l-0.29-14.07l1.68-1.68C299.8,177.29,300.23,176.85,300.52,176.6z
			 M300.84,176.92c0-0.08-0.12-0.01-0.35,0.2c-0.23,0.21-0.62,0.59-1.16,1.13c-1.04,1-1.56,1.56-1.56,1.68
			c0,0.16,0.52-0.31,1.56-1.39C300.34,177.54,300.84,177,300.84,176.92z M300.84,177.44l-3.07,3.07v1.1l3.07-3.07V177.44z
			 M300.9,180.05l-0.06-1.1l-3.01,2.95v1.22l1.56-1.51L300.9,180.05z M300.96,181.61l-0.12-1.16l-3.01,3.01l0.06,1.1
			c0.08-0.08,0.25-0.25,0.52-0.52c0.27-0.27,0.62-0.6,1.04-0.98L300.96,181.61z M300.96,183.06v-1.16l-3.07,3.07v1.22l1.56-1.51
			L300.96,183.06z M301.02,184.57l-0.06-1.04l-3.07,3.01v0.41c0,0.35,0.02,0.52,0.06,0.52c0.08,0,0.29-0.16,0.64-0.49
			c0.35-0.33,0.66-0.63,0.93-0.9L301.02,184.57z M301.02,186.13l-0.06-1.16l-3.01,3.07v1.22l1.56-1.56L301.02,186.13z
			 M301.07,187.64l-0.12-1.1l-3.01,3.07l0.06,1.04l1.51-1.51L301.07,187.64z M301.07,189.14v-1.1l-3.07,3.07v1.1l1.51-1.56
			L301.07,189.14z M301.07,189.6l-3.07,3.01l0.06,1.1l3.07-3.07v-0.29L301.07,189.6z M301.13,192.21l-0.06-1.16l-3.01,3.01v1.22
			l1.51-1.56L301.13,192.21z M301.13,192.73c-0.12,0-0.64,0.46-1.56,1.39l-1.51,1.45l0.06,1.16l3.07-3.01v-0.41
			C301.19,192.93,301.17,192.73,301.13,192.73z M301.19,194.12l-3.07,3.01v1.16l3.07-3.07V194.12z M301.25,196.73l-0.06-1.16
			l-3.01,3.07v1.22l1.51-1.56L301.25,196.73z M301.25,197.71l-0.06-0.58l-1.51,1.51l-1.51,1.56v1.16l3.07-3.07V197.71z
			 M301.31,199.74v-1.1l-3.07,3.07v1.1l1.51-1.56L301.31,199.74z M301.36,201.25l-0.06-1.04l-3.07,3.01l0.06,1.04
			c0,0.04,0.5-0.44,1.51-1.45L301.36,201.25z M301.36,202.81l-0.06-1.16l-3.01,3.01v1.22l1.51-1.56L301.36,202.81z M301.42,204.32
			l-0.12-1.16l-3.01,3.01v0.46c0,0.39,0.02,0.58,0.06,0.58c0.08,0,0.3-0.18,0.67-0.55c0.37-0.37,0.65-0.65,0.84-0.84L301.42,204.32z
			 M301.48,204.55l-1.51,1.51l-1.51,1.56h1.16l3.07-3.07H301.48z M304.32,204.49h-0.29l-0.7,0.06h-0.29l-1.51,1.51l-1.51,1.56
			l1.27-0.06l1.51-1.51L304.32,204.49z M305.88,204.49h-1.22l-3.07,3.07h1.16l1.56-1.51L305.88,204.49z M307.39,204.43h-1.1
			l-3.01,3.07h1.04l1.56-1.51L307.39,204.43z M309.01,204.37l-1.22,0.06l-3.01,3.07l1.22-0.06l1.51-1.51
			C308.54,204.89,309.05,204.37,309.01,204.37z M310.57,204.37h-1.22l-3.07,3.07h1.22l1.56-1.51L310.57,204.37z M312.19,204.32
			l-1.27,0.06l-3.01,3.01h1.22l1.56-1.51L312.19,204.32z M310.22,183.12h-1.22l0.06,1.16c0.15-0.19,0.35-0.39,0.58-0.58
			L310.22,183.12z M313.29,183.12h-1.22l-3.01,3.07h1.16l1.56-1.51L313.29,183.12z M310.57,183.12l-0.75,0.75l-0.75,0.81l0.06,1.1
			l2.66-2.66H310.57z M315.96,186.36l-6.83,0.06V187l6.78,0.35v-0.52L315.96,186.36z M309.7,193.54h-0.17
			c-0.15,0-0.25,0.06-0.29,0.17c-0.04,0.12-0.04,0.33,0,0.64v0.52l1.33-1.27h-0.29L309.7,193.54z M312.08,193.6h-1.16l-1.68,1.68
			l0.12,1.1l1.33-1.39L312.08,193.6z M310.57,196.9h-1.27v0.41l6.08-0.29c0-0.04-0.6-0.06-1.8-0.06
			C312,196.96,311,196.94,310.57,196.9z M312.43,193.6l-3.07,3.07h1.22l3.07-3.07H312.43z M312.54,204.32l-3.07,3.07h1.22l3.07-3.07
			H312.54z M313.64,183.12l-3.07,3.07h1.22l3.07-3.07H313.64z M314.16,193.6c-0.08,0-0.23,0.11-0.46,0.32
			c-0.23,0.21-0.64,0.63-1.22,1.25l-1.51,1.51l1.1,0.06l3.07-3.07h-0.41L314.16,193.6z M315.38,204.26h-1.22l-3.07,3.07h1.22
			l1.56-1.51L315.38,204.26z M316.36,183.12h-1.22l-3.07,3.07h1.22l1.56-1.51L316.36,183.12z M315.49,193.66l-3.07,3.07h1.22
			l3.07-3.07H315.49z M316.39,204.72c0.25-0.27,0.4-0.44,0.43-0.52l-1.16,0.06l-3.01,3.07l1.22-0.06l1.51-1.51
			C315.8,205.34,316.14,204.99,316.39,204.72z M317.93,183.06l-0.58,0.06h-0.58l-3.01,3.07l1.16-0.06l1.56-1.51
			C316.98,184.12,317.46,183.6,317.93,183.06z M318.22,193.66H317l-3.01,3.07h1.16l1.56-1.51L318.22,193.66z M317.35,204.2
			l-3.07,3.07h1.1l3.07-3.07H317.35z M319.26,183.06h-0.93l-3.07,3.07h0.52c0.15,0,0.26,0.01,0.32,0.03
			c0.06,0.02,0.09,0.07,0.09,0.14c0.04,0.04,0.17-0.05,0.41-0.26c0.23-0.21,0.62-0.59,1.16-1.13c0.96-0.96,1.45-1.53,1.45-1.68
			L319.26,183.06z M317.09,195.16c-1.02,1-1.52,1.53-1.48,1.56l0.69,0.23c0.08,0,0.25-0.12,0.52-0.38c0.27-0.25,0.69-0.65,1.27-1.19
			l1.62-1.68h-1.04C318.64,193.68,318.11,194.16,317.09,195.16z M320.07,204.14h-0.35c-0.35,0.04-0.58,0.07-0.69,0.09
			c-0.12,0.02-0.31,0.16-0.58,0.43c-0.27,0.27-0.64,0.64-1.1,1.1l-1.51,1.45H317l1.56-1.51L320.07,204.14z M319.2,183.81
			c-0.5,0.46-1,0.96-1.51,1.51l-1.56,1.51v0.52l0.7,0.06l2.32-2.38v-0.58L319.2,183.81z M320.07,193.72l-3.24,3.24l1.27-0.06
			l3.19-3.19H320.07z M318.1,186.36l-0.98,1.04l1.1,0.06l0.87-0.81v-1.27L318.1,186.36z M321.63,204.14h-1.22l-3.07,3.07l1.27-0.06
			l1.51-1.45L321.63,204.14z M321.63,193.72l-3.19,3.19l1.22-0.06l3.13-3.13H321.63z M319.03,187.29l-0.06-0.23l-0.17,0.17
			l-0.12,0.23h0.12l0.23,0.06V187.29z M322.04,204.08l-3.07,3.07h1.22l3.07-3.07H322.04z M324.24,193.77h-1.1l-3.07,3.01h1.22
			l1.45-1.51L324.24,193.77z M324.65,204.08h-1.04l-3.07,3.07l1.16-0.06l1.56-1.51C324.26,204.59,324.72,204.08,324.65,204.08z
			 M325.86,193.77h-1.22l-2.95,2.95l1.22-0.06l1.51-1.39L325.86,193.77z M326.44,204.08h-1.22l-3.07,3.01h1.22l1.51-1.51
			L326.44,204.08z M326.33,193.77c-0.08,0-0.62,0.5-1.62,1.51l-1.45,1.39h0.29c0.15,0,0.23-0.04,0.23-0.12
			c0-0.04,0.15-0.22,0.46-0.55c0.31-0.33,0.6-0.63,0.87-0.9C326,194.22,326.4,193.77,326.33,193.77z M326.85,204.08
			c-0.04,0-0.58,0.48-1.62,1.45l-1.45,1.51c0.12,0,0.67-0.5,1.68-1.51C326.46,204.57,326.92,204.08,326.85,204.08z"/>
		<path class="st37" d="M336.34,169.22h9.38l-0.06,7.07l7.01-0.17v7.59l-3.3,3.3l-3.76-0.06l-0.12,10.37h6.43v7.01l-1.62,1.68
			l-1.68,1.62h-15l-0.29-20.96l-4.81-0.12v-6.66l3.3-3.36l1.33-0.06l-0.06-3.94l1.62-1.68L336.34,169.22z M331.77,178.25v-1.16
			l-3.07,3.01v1.16l1.56-1.51L331.77,178.25z M331.77,178.66l-3.07,3.07v1.1l3.07-3.07V178.66z M331.77,181.32v-1.1l-3.07,3.01v1.22
			l1.56-1.51L331.77,181.32z M331.77,182.89v-1.16l-3.07,3.07v1.22l1.56-1.56L331.77,182.89z M331.77,183.23l-3.07,3.07l1.1,0.06
			l3.07-3.07h-0.29L331.77,183.23z M334.37,183.29h-1.04l-3.07,3.07h1.1l1.51-1.51L334.37,183.29z M334.72,183.35l-3.07,3.07h1.22
			l3.07-3.07H334.72z M336.34,170.55v-0.87l-3.01,3.07v0.87l1.51-1.56L336.34,170.55z M336.34,172.11v-1.16l-3.01,3.01v1.22
			l1.51-1.56L336.34,172.11z M336.4,183.35c-0.04,0-0.22,0.17-0.55,0.49c-0.33,0.33-0.71,0.69-1.13,1.07c-1.04,1-1.49,1.5-1.33,1.5
			h0.12v0.87l3.07-3.07v-0.87H336.4z M336.4,173.56l-0.06-1.1l-2.95,3.01V176c0,0.31,0.02,0.46,0.06,0.46
			c0.04,0,0.56-0.46,1.56-1.39L336.4,173.56z M336.58,184.68l-3.07,3.07v1.1l3.07-3.07V184.68z M336.58,186.3
			c0-0.04-0.17,0.11-0.49,0.43c-0.33,0.33-0.67,0.67-1.01,1.01l-1.56,1.51l0.06,1.1l3.07-3.07v-0.41L336.58,186.3z M336.63,188.85
			l-0.06-1.16l-3.01,3.01v1.16l1.56-1.51L336.63,188.85z M336.58,189.2l-3.01,3.01l0.06,1.16l3.07-3.07L336.58,189.2z
			 M336.69,191.81v-1.04l-3.07,2.95v1.22l1.56-1.51L336.69,191.81z M336.69,193.43v-1.16l-3.07,3.01v0.58
			c0,0.39,0.02,0.58,0.06,0.58c0.5-0.54,1.02-1.06,1.56-1.56L336.69,193.43z M336.75,194.88l-0.06-1.16l-3.01,3.07V198l1.56-1.51
			L336.75,194.88z M336.75,196.44l-0.06-1.1l-3.01,3.01v1.16l1.56-1.51L336.75,196.44z M336.75,196.84l-1.51,1.56l-1.51,1.45v1.16
			l3.07-3.01v-0.58L336.75,196.84z M336.81,199.51v-1.16l-3.07,3.07v1.16l1.56-1.51L336.81,199.51z M336.81,199.86l-3.07,3.07v0.52
			l0.06,0.58l3.07-3.07v-0.23L336.81,199.86z M336.81,201.42l-3.01,3.01v1.1l3.07-3.07L336.81,201.42z M336.92,204.03l-0.12-1.1
			l-3.01,3.07l0.06,0.99c0,0.08,0.5-0.41,1.51-1.45L336.92,204.03z M336.92,204.32l-3.07,3.07h1.22l3.07-3.07H336.92z M336.4,175.13
			l-0.06-1.1l-2.37,2.43l1.22-0.06l0.58-0.64L336.4,175.13z M336.34,175.53l-0.87,0.87h0.98v-0.17L336.34,175.53z M339.64,204.32
			h-1.1l-3.07,3.07h1.1l1.56-1.51L339.64,204.32z M341.27,204.32h-1.16l-3.07,3.07h1.16l1.56-1.51L341.27,204.32z M341.61,204.32
			l-3.07,3.07h1.22l3.07-3.07H341.61z M344.34,204.32h-1.22l-3.01,3.07h1.16l1.56-1.51L344.34,204.32z M344.68,204.32l-3.07,3.07
			h1.22l3.07-3.07H344.68z M347.41,204.32h-1.22l-3.07,3.07h1.22l1.56-1.51L347.41,204.32z M348.91,204.32h-1.16l-3.07,3.07h1.22
			l1.51-1.51L348.91,204.32z M345.61,183.52v1.04l0.46-0.52l0.46-0.46L345.61,183.52z M348.04,183.58h-1.16l-0.64,0.64l-0.64,0.7
			l0.06,1.1l1.22-1.22L348.04,183.58z M349.61,183.64h-1.22l-1.39,1.39c-0.93,0.89-1.39,1.41-1.39,1.56c0,0.04,0.03,0.07,0.09,0.09
			c0.06,0.02,0.16,0.03,0.32,0.03h0.52l1.51-1.56L349.61,183.64z M349.37,204.32l-3.07,3.07h1.1l3.07-3.07H349.37z M349.9,183.64
			l-3.01,3.07l1.1,0.06l3.07-3.07h-0.23L349.9,183.64z M350.88,204.32l-3.01,3.07h0.52l3.07-3.07H350.88z M351.46,183.7l-1.56,1.51
			l-1.51,1.56h0.75l3.07-3.07H351.46z"/>
	</g>
</g>
</svg>
